1	"[[6, 2, 1, 5][5][3, 4][1][6, 1, 2, 4][5]] [6|(50000.0, 630.0)(50000.0, 450.0)(50000.0, 450.0)(46600.0, 560.0)(50000.0, 630.0)(43300.0, 525.0)] [12|(128.0, 5.0, 30.0)(128.0, 1.0, 60.0)(128.0, 5.0, 30.0)(224.0, 1.0, 123.0)(192.0, 1.0, 102.0)(256.0, 3.0, 129.0)(128.0, 5.0, 30.0)(224.0, 1.0, 123.0)(256.0, 3.0, 129.0)(128.0, 3.0, 45.0)(160.0, 1.0, 81.0)(160.0, 1.0, 81.0)] [1, 0, 1, 0, 1, 1; 1, 1, 1, 1, 1, 1; 1, 0, 1, 0, 1, 1; 1, 1, 1, 1, 0, 0; 1, 1, 1, 1, 0, 1; 1, 1, 1, 1, 0, 1; 1, 0, 0, 1, 0, 1; 1, 1, 0, 0, 1, 0; 1, 0, 1, 1, 1, 1; 1, 1, 0, 1, 0, 0; 1, 0, 1, 0, 1, 1; 1, 1, 0, 1, 1, 0]"	0.03083758800013218	0.4208	0.06694216063944726	0.414876154490237	0.015047127822530978
2	"[[1][2, 3][2, 3, 4, 5][1][1][3]] [5|(50000.0, 630.0)(50000.0, 450.0)(50000.0, 450.0)(46600.0, 560.0)(50000.0, 450.0)] [3|(128.0, 1.0, 60.0)(128.0, 1.0, 60.0)(128.0, 5.0, 30.0)] [1, 0, 1, 1, 1; 1, 1, 1, 1, 1; 1, 1, 1, 1, 1]"	0.027850379237937355	0.269	0.07678552843903833	0.23921895822072897	0.015893930300168155
3	"[[5, 3, 1, 6][5][2, 6, 1, 5][1, 5, 2, 6][2, 4, 5, 6][5]] [6|(50000.0, 630.0)(50000.0, 450.0)(23300.0, 225.0)(50000.0, 450.0)(50000.0, 450.0)(13300.0, 150.0)] [12|(128.0, 1.0, 60.0)(128.0, 1.0, 60.0)(128.0, 5.0, 30.0)(128.0, 5.0, 30.0)(192.0, 1.0, 102.0)(256.0, 3.0, 129.0)(128.0, 5.0, 30.0)(128.0, 5.0, 30.0)(256.0, 5.0, 114.0)(160.0, 1.0, 81.0)(224.0, 1.0, 123.0)(160.0, 1.0, 81.0)] [1, 0, 1, 0, 1, 1; 1, 1, 1, 1, 1, 1; 1, 0, 1, 0, 0, 0; 1, 1, 1, 0, 1, 1; 1, 1, 1, 0, 1, 0; 1, 1, 0, 0, 1, 1; 1, 1, 0, 1, 1, 0; 1, 1, 1, 1, 1, 0; 1, 0, 0, 1, 1, 1; 1, 1, 1, 1, 0, 0; 1, 0, 0, 0, 1, 1; 1, 0, 1, 1, 1, 1]"	0.002267582776250206	0.3225	0.07986428436762788	0.38280065209012526	0.015952476026095393
4	"[[1][2, 3][2][1][1][3]] [3|(33300.0, 300.0)(30000.0, 275.0)(23300.0, 225.0)] [3|(128.0, 5.0, 30.0)(128.0, 1.0, 60.0)(128.0, 5.0, 30.0)] [1, 0, 1; 1, 1, 1; 1, 1, 1]"	0.07345405495733981	0.092	0.21177269853098835	0.4615562121169223	0.015809491713490838
5	"[[2, 6, 5, 4][2, 3][2][1][1][3]] [6|(50000.0, 630.0)(50000.0, 450.0)(50000.0, 450.0)(6600.0, 100.0)(50000.0, 450.0)(43300.0, 525.0)] [12|(128.0, 5.0, 30.0)(128.0, 1.0, 60.0)(128.0, 5.0, 30.0)(160.0, 1.0, 81.0)(192.0, 1.0, 102.0)(128.0, 5.0, 30.0)(256.0, 5.0, 114.0)(128.0, 3.0, 45.0)(256.0, 5.0, 114.0)(128.0, 3.0, 45.0)(160.0, 1.0, 81.0)(160.0, 1.0, 81.0)] [1, 0, 1, 1, 1, 0; 1, 1, 1, 1, 1, 1; 1, 1, 1, 1, 1, 1; 1, 1, 1, 1, 0, 1; 1, 0, 1, 1, 1, 0; 1, 1, 1, 0, 1, 1; 1, 0, 0, 1, 0, 1; 1, 1, 0, 1, 1, 0; 1, 1, 0, 1, 0, 1; 1, 1, 1, 1, 0, 0; 1, 0, 1, 0, 1, 1; 1, 1, 1, 0, 1, 1]"	0.009351762980821248	0.3418	0.06380098432805942	0.2724174149638477	0.015508790284073468
6	"[[5, 3, 1, 6][5][2, 6, 1, 5][1, 5, 2, 6][2, 4, 5, 6][5]] [6|(23300.0, 225.0)(50000.0, 450.0)(23300.0, 225.0)(46600.0, 560.0)(50000.0, 450.0)(43300.0, 525.0)] [3|(128.0, 1.0, 60.0)(128.0, 1.0, 60.0)(128.0, 5.0, 30.0)] [1, 0, 1, 1, 1, 0; 1, 1, 1, 1, 1, 1; 1, 1, 1, 0, 0, 0]"	0.009174900297677388	0.2585	0.07078941005980653	0.3663700755907379	0.016385236828157325
7	"[[1][2, 3][2][1][1][3]] [3|(46600.0, 400.0)(50000.0, 450.0)(50000.0, 450.0)] [3|(128.0, 5.0, 30.0)(128.0, 3.0, 45.0)(128.0, 5.0, 30.0)] [1, 0, 1; 1, 1, 1; 1, 1, 1]"	0.10186425232197656	0.1405	0.13277169924712806	0.3720844489694036	0.016319299012619866
8	"[[1][2, 3][2][1][1][3]] [3|(23300.0, 225.0)(40000.0, 350.0)(23300.0, 225.0)] [3|(128.0, 1.0, 60.0)(128.0, 1.0, 60.0)(128.0, 5.0, 30.0)] [1, 0, 1; 1, 1, 1; 1, 1, 1]"	0.026651321529225325	0.095	0.24368032626218605	0.4399413903132357	0.015511873953587413
9	"[[1, 5, 2, 3][5][1, 5, 2, 4][1][6, 1, 2, 4][5]] [6|(50000.0, 630.0)(40000.0, 350.0)(30000.0, 275.0)(6600.0, 100.0)(46600.0, 560.0)(43300.0, 525.0)] [3|(128.0, 3.0, 45.0)(128.0, 1.0, 60.0)(128.0, 5.0, 30.0)] [1, 0, 1, 1, 1, 1; 1, 1, 1, 0, 1, 1; 1, 1, 0, 1, 1, 1]"	0.0752955424812475	0.2575	0.08304813522992711	0.38515852581975873	0.01515939056786228
10	"[[5, 6, 2, 3][5][3, 4][1, 5, 2, 6][2, 1, 3, 5][5]] [6|(6600.0, 140.0)(10000.0, 125.0)(6600.0, 100.0)(46600.0, 560.0)(46600.0, 560.0)(13300.0, 150.0)] [3|(128.0, 1.0, 60.0)(128.0, 3.0, 45.0)(128.0, 5.0, 30.0)] [1, 0, 1, 1, 1, 1; 1, 1, 1, 1, 1, 0; 1, 1, 1, 1, 1, 1]"	0.014478569720296403	0.177	0.150939428054575	0.5240544486326043	0.015081149275877174
11	"[[1, 5, 2, 3][5][1, 5, 2, 4][1][6, 1, 2, 4][5]] [6|(33300.0, 300.0)(46600.0, 400.0)(10000.0, 125.0)(6600.0, 100.0)(46600.0, 560.0)(43300.0, 525.0)] [3|(128.0, 5.0, 30.0)(128.0, 1.0, 60.0)(128.0, 5.0, 30.0)] [1, 1, 1, 1, 1, 1; 1, 1, 1, 1, 1, 1; 1, 1, 1, 1, 1, 1]"	0.13035049634212573	0.213	0.09775008467072453	0.5006709422034819	0.01513009796916763
12	"[[2, 6, 5, 4][2, 3][2][1][1][3]] [6|(50000.0, 630.0)(50000.0, 450.0)(50000.0, 450.0)(46600.0, 560.0)(50000.0, 630.0)(43300.0, 525.0)] [12|(224.0, 1.0, 123.0)(128.0, 1.0, 60.0)(128.0, 5.0, 30.0)(160.0, 1.0, 81.0)(192.0, 1.0, 102.0)(256.0, 3.0, 129.0)(160.0, 3.0, 66.0)(224.0, 1.0, 123.0)(256.0, 3.0, 129.0)(128.0, 3.0, 45.0)(160.0, 1.0, 81.0)(160.0, 1.0, 81.0)] [1, 0, 1, 0, 1, 0; 1, 1, 1, 1, 1, 1; 1, 0, 1, 1, 1, 1; 1, 1, 1, 1, 0, 0; 1, 0, 1, 1, 0, 1; 1, 1, 1, 0, 1, 0; 1, 1, 1, 1, 0, 1; 1, 1, 0, 1, 1, 1; 1, 1, 0, 1, 0, 1; 1, 1, 0, 0, 1, 0; 1, 0, 1, 0, 1, 1; 1, 1, 1, 0, 1, 0]"	0.004996548034742507	0.4295	0.06414272827117727	0.2595756885034649	0.015466235587158924
13	"[[2, 5, 3, 1][5][3, 4][1][6, 1, 2, 4][5]] [6|(23300.0, 225.0)(20000.0, 200.0)(6600.0, 100.0)(16600.0, 175.0)(46600.0, 560.0)(10000.0, 125.0)] [3|(128.0, 5.0, 30.0)(128.0, 3.0, 45.0)(128.0, 5.0, 30.0)] [1, 0, 1, 0, 1, 1; 1, 1, 1, 1, 1, 1; 1, 0, 1, 1, 1, 1]"	0.09999635839670136	0.149	0.13920867634509457	0.5198726654139436	0.015285573013979672
14	"[[5, 6, 2, 3][5][3, 4][1, 5, 2, 6][2, 1, 3, 5][5]] [6|(6600.0, 140.0)(50000.0, 450.0)(23300.0, 225.0)(50000.0, 450.0)(50000.0, 450.0)(13300.0, 150.0)] [12|(224.0, 1.0, 123.0)(128.0, 1.0, 60.0)(128.0, 5.0, 30.0)(128.0, 5.0, 30.0)(192.0, 1.0, 102.0)(256.0, 3.0, 129.0)(256.0, 5.0, 114.0)(128.0, 5.0, 30.0)(256.0, 5.0, 114.0)(160.0, 1.0, 81.0)(224.0, 1.0, 123.0)(160.0, 1.0, 81.0)] [1, 0, 1, 1, 1, 1; 1, 1, 1, 1, 1, 0; 1, 1, 1, 1, 0, 1; 1, 1, 1, 0, 1, 0; 1, 1, 0, 1, 0, 0; 1, 1, 0, 0, 1, 1; 1, 1, 0, 1, 0, 0; 1, 1, 1, 1, 1, 0; 1, 1, 0, 1, 1, 1; 1, 0, 0, 1, 0, 0; 1, 0, 0, 0, 1, 1; 1, 0, 1, 1, 1, 1]"	0.002535134451366829	0.2882	0.10688762714680859	0.42002524394069396	0.016232100657287134
15	"[[1, 5, 2, 3][5][1, 5, 2, 4][1][6, 1, 2, 4][5]] [6|(50000.0, 630.0)(46600.0, 400.0)(23300.0, 225.0)(6600.0, 100.0)(50000.0, 450.0)(13300.0, 150.0)] [3|(128.0, 5.0, 30.0)(128.0, 1.0, 60.0)(128.0, 5.0, 30.0)] [1, 1, 1, 1, 1, 1; 1, 1, 1, 1, 1, 1; 1, 1, 1, 1, 0, 1]"	0.13057667262763972	0.2075	0.08245452226928467	0.4728017082676124	0.015507960711061497
16	"[[1][2, 3][2][1][1][3]] [3|(33300.0, 300.0)(30000.0, 275.0)(30000.0, 275.0)] [3|(128.0, 5.0, 30.0)(128.0, 1.0, 60.0)(128.0, 5.0, 30.0)] [1, 0, 1; 1, 1, 1; 1, 1, 1]"	0.07301605144230787	0.097	0.20297047913370928	0.4428626966006677	0.015644150099456605
17	"[[1][2, 3][2][1][1][3]] [3|(23300.0, 225.0)(50000.0, 450.0)(23300.0, 225.0)] [3|(224.0, 1.0, 123.0)(128.0, 1.0, 60.0)(128.0, 5.0, 30.0)] [1, 0, 1; 1, 1, 1; 1, 0, 1]"	0.025924014823184027	0.1113	0.23441997747444432	0.43253849058307936	0.016177737503528324
18	"[[2, 5, 3, 1][5][3, 4][1][6, 1, 2, 4][5]] [6|(46600.0, 400.0)(50000.0, 450.0)(6600.0, 100.0)(16600.0, 175.0)(46600.0, 560.0)(10000.0, 125.0)] [3|(128.0, 5.0, 30.0)(128.0, 3.0, 45.0)(128.0, 5.0, 30.0)] [1, 0, 1, 1, 1, 1; 1, 1, 1, 0, 1, 1; 1, 1, 0, 1, 1, 1]"	0.1043339133342693	0.1915	0.10034774495559763	0.4308306030747645	0.015595284346367963
19	"[[2, 6, 5, 4][2, 3][2][1][1][3]] [6|(50000.0, 630.0)(50000.0, 450.0)(50000.0, 450.0)(46600.0, 560.0)(50000.0, 450.0)(43300.0, 525.0)] [12|(224.0, 1.0, 123.0)(128.0, 1.0, 60.0)(128.0, 5.0, 30.0)(160.0, 1.0, 81.0)(192.0, 1.0, 102.0)(128.0, 5.0, 30.0)(256.0, 5.0, 114.0)(224.0, 1.0, 123.0)(256.0, 5.0, 114.0)(128.0, 3.0, 45.0)(160.0, 1.0, 81.0)(128.0, 3.0, 45.0)] [1, 0, 1, 1, 1, 0; 1, 1, 1, 1, 1, 0; 1, 1, 1, 1, 1, 1; 1, 1, 1, 1, 0, 1; 1, 0, 0, 1, 1, 0; 1, 1, 1, 0, 1, 1; 1, 0, 1, 1, 1, 1; 1, 1, 0, 1, 1, 0; 1, 1, 0, 1, 0, 0; 1, 0, 1, 1, 0, 0; 1, 0, 0, 0, 0, 1; 1, 1, 1, 0, 1, 1]"	0.004911909036669097	0.4013	0.06391644508421475	0.2572298043866549	0.015733653599263944
20	"[[2, 6, 5, 4][2, 3][2][1][1][3]] [6|(50000.0, 630.0)(50000.0, 450.0)(50000.0, 450.0)(6600.0, 100.0)(46600.0, 560.0)(43300.0, 525.0)] [3|(128.0, 5.0, 30.0)(128.0, 1.0, 60.0)(128.0, 5.0, 30.0)] [1, 1, 1, 0, 1, 0; 1, 1, 1, 1, 1, 1; 1, 0, 1, 1, 1, 1]"	0.09645964680663642	0.2835	0.06410619674735059	0.3927442337561804	0.015765256683079775
21	"[[1][2, 3][2][1][1][3]] [3|(23300.0, 225.0)(50000.0, 450.0)(30000.0, 275.0)] [3|(224.0, 1.0, 123.0)(128.0, 1.0, 60.0)(128.0, 5.0, 30.0)] [1, 0, 1; 1, 1, 1; 1, 0, 1]"	0.025800714604973973	0.1163	0.21972943535017955	0.4051241150584231	0.01608436670110266
22	"[[5, 6, 2, 3][5][3, 4][1, 5, 2, 6][2][5]] [6|(23300.0, 225.0)(10000.0, 125.0)(6600.0, 100.0)(6600.0, 100.0)(46600.0, 400.0)(10000.0, 125.0)] [3|(128.0, 5.0, 30.0)(128.0, 3.0, 45.0)(128.0, 5.0, 30.0)] [1, 0, 1, 1, 1, 1; 1, 1, 1, 0, 1, 1; 1, 1, 0, 1, 1, 1]"	0.045008800074036216	0.118	0.15620893992232274	0.5544659699523109	0.016191310672733956
23	"[[5, 2, 3, 1][5][3, 4][1, 5, 2, 6][2][5]] [6|(6600.0, 140.0)(10000.0, 125.0)(6600.0, 100.0)(6600.0, 100.0)(50000.0, 450.0)(13300.0, 150.0)] [3|(128.0, 3.0, 45.0)(128.0, 1.0, 60.0)(128.0, 5.0, 30.0)] [1, 0, 1, 1, 0, 0; 1, 1, 0, 1, 1, 0; 1, 1, 1, 0, 1, 1]"	0.02398679028082806	0.12	0.1669053593454057	0.5372142018749149	0.015834457990180094
24	"[[1][2, 3][2][1][1][3]] [3|(50000.0, 630.0)(40000.0, 350.0)(50000.0, 450.0)] [3|(128.0, 1.0, 60.0)(128.0, 3.0, 45.0)(128.0, 5.0, 30.0)] [1, 0, 1; 1, 1, 1; 1, 0, 1]"	0.05658497215352886	0.1565	0.13411911777084343	0.3222455523530246	0.015619374011662506
25	"[[5, 3, 1, 6][5][2, 6, 1, 5][1, 5, 2, 6][2, 4, 5, 6][5]] [6|(33300.0, 300.0)(50000.0, 450.0)(50000.0, 450.0)(46600.0, 560.0)(50000.0, 630.0)(43300.0, 525.0)] [12|(128.0, 1.0, 60.0)(128.0, 1.0, 60.0)(128.0, 5.0, 30.0)(224.0, 1.0, 123.0)(192.0, 1.0, 102.0)(256.0, 3.0, 129.0)(256.0, 5.0, 114.0)(128.0, 3.0, 45.0)(256.0, 3.0, 129.0)(160.0, 1.0, 81.0)(160.0, 1.0, 81.0)(160.0, 1.0, 81.0)] [1, 0, 1, 0, 1, 0; 1, 1, 1, 1, 1, 1; 1, 0, 1, 1, 1, 1; 1, 1, 1, 1, 1, 0; 1, 0, 1, 1, 0, 0; 1, 1, 1, 0, 1, 1; 1, 1, 0, 1, 0, 0; 1, 1, 1, 1, 1, 0; 1, 1, 0, 1, 1, 1; 1, 1, 0, 1, 0, 0; 1, 0, 1, 0, 1, 1; 1, 1, 1, 1, 1, 0]"	0.0022835066308473837	0.395	0.06748647374657969	0.3608881679493052	0.015630482566087556
26	"[[2, 5, 3, 1][5][3, 4][1][6, 1, 2, 4][5]] [6|(23300.0, 225.0)(50000.0, 450.0)(6600.0, 100.0)(46600.0, 560.0)(50000.0, 450.0)(13300.0, 150.0)] [12|(224.0, 1.0, 123.0)(128.0, 1.0, 60.0)(128.0, 5.0, 30.0)(128.0, 5.0, 30.0)(192.0, 1.0, 102.0)(128.0, 5.0, 30.0)(160.0, 1.0, 81.0)(128.0, 3.0, 45.0)(256.0, 3.0, 129.0)(160.0, 1.0, 81.0)(160.0, 1.0, 81.0)(160.0, 1.0, 81.0)] [1, 0, 1, 0, 1, 0; 1, 1, 1, 0, 1, 1; 1, 0, 0, 0, 1, 1; 1, 1, 1, 1, 0, 1; 1, 0, 1, 1, 1, 0; 1, 0, 1, 0, 1, 1; 1, 0, 0, 1, 0, 0; 1, 1, 0, 1, 1, 1; 1, 0, 0, 1, 1, 1; 1, 1, 1, 1, 1, 1; 1, 0, 0, 0, 1, 1; 1, 1, 1, 1, 1, 0]"	0.006750887648976602	0.2808	0.10459080733145647	0.3498820390689558	0.015401943568519481
27	"[[2, 6, 5, 4][2, 3][2][1][1][3]] [6|(50000.0, 630.0)(50000.0, 450.0)(50000.0, 450.0)(46600.0, 560.0)(46600.0, 400.0)(43300.0, 525.0)] [12|(128.0, 5.0, 30.0)(128.0, 3.0, 45.0)(128.0, 5.0, 30.0)(128.0, 5.0, 30.0)(192.0, 1.0, 102.0)(128.0, 5.0, 30.0)(128.0, 5.0, 30.0)(128.0, 3.0, 45.0)(256.0, 3.0, 129.0)(160.0, 1.0, 81.0)(224.0, 1.0, 123.0)(160.0, 1.0, 81.0)] [1, 0, 1, 1, 1, 1; 1, 1, 1, 1, 1, 1; 1, 1, 1, 0, 1, 1; 1, 1, 1, 1, 0, 0; 1, 1, 1, 1, 0, 1; 1, 1, 1, 0, 0, 0; 1, 1, 0, 1, 1, 1; 1, 1, 0, 0, 1, 0; 1, 0, 0, 1, 1, 1; 1, 1, 0, 0, 0, 0; 1, 0, 0, 0, 1, 0; 1, 1, 0, 1, 1, 0]"	0.016702724055692553	0.3771	0.0639367791592332	0.35188315558209243	0.015501290316098149
28	"[[1, 5, 2, 3][5][1, 5, 2, 4][1][6, 1, 2, 4][5]] [6|(50000.0, 630.0)(50000.0, 450.0)(10000.0, 125.0)(46600.0, 560.0)(50000.0, 450.0)(43300.0, 525.0)] [3|(128.0, 5.0, 30.0)(128.0, 1.0, 60.0)(128.0, 5.0, 30.0)] [1, 0, 1, 1, 1, 0; 1, 1, 1, 1, 1, 0; 1, 1, 1, 1, 1, 1]"	0.12454528583342489	0.286	0.06440540016565176	0.41872618724129695	0.01571262355938673
29	"[[5, 6, 2, 3][5][3, 4][1, 5, 2, 6][2, 1, 3, 5][5]] [6|(6600.0, 140.0)(10000.0, 125.0)(50000.0, 450.0)(6600.0, 100.0)(50000.0, 630.0)(10000.0, 125.0)] [3|(128.0, 3.0, 45.0)(128.0, 1.0, 60.0)(128.0, 5.0, 30.0)] [1, 0, 1, 1, 1, 0; 1, 1, 1, 1, 1, 0; 1, 1, 1, 1, 1, 1]"	0.02951880373965741	0.1705	0.1446164992367929	0.5052484566932589	0.01543871450489839
30	"[[1][2, 3][2][1][1][3]] [3|(23300.0, 225.0)(40000.0, 350.0)(30000.0, 275.0)] [3|(224.0, 1.0, 123.0)(128.0, 1.0, 60.0)(128.0, 5.0, 30.0)] [1, 0, 1; 1, 1, 1; 1, 0, 1]"	0.02660982332220661	0.1063	0.22889335420628523	0.4135514523958371	0.015868285279382055
31	"[[5, 2, 3, 1][5][3, 4][1, 5, 2, 6][2][5]] [6|(33300.0, 300.0)(40000.0, 350.0)(6600.0, 100.0)(6600.0, 100.0)(46600.0, 400.0)(13300.0, 150.0)] [3|(128.0, 5.0, 30.0)(128.0, 1.0, 60.0)(128.0, 5.0, 30.0)] [1, 0, 1, 1, 1, 0; 1, 1, 1, 1, 1, 0; 1, 1, 1, 1, 1, 1]"	0.037155241621671026	0.152	0.12332581714575781	0.48457868034546225	0.015778051054476227
32	"[[2, 6, 5, 4][2, 3][2][1][1][3]] [6|(33300.0, 300.0)(46600.0, 400.0)(50000.0, 450.0)(6600.0, 100.0)(46600.0, 560.0)(43300.0, 525.0)] [12|(224.0, 1.0, 123.0)(128.0, 1.0, 60.0)(128.0, 5.0, 30.0)(160.0, 1.0, 81.0)(192.0, 1.0, 102.0)(128.0, 5.0, 30.0)(256.0, 5.0, 114.0)(128.0, 3.0, 45.0)(256.0, 3.0, 129.0)(160.0, 1.0, 81.0)(160.0, 1.0, 81.0)(128.0, 3.0, 45.0)] [1, 1, 1, 1, 1, 1; 1, 1, 1, 1, 1, 1; 1, 1, 1, 1, 1, 1; 1, 1, 1, 1, 1, 1; 1, 1, 1, 1, 1, 1; 1, 1, 1, 1, 1, 1; 1, 0, 1, 0, 1, 0; 1, 1, 1, 1, 1, 0; 1, 1, 1, 1, 0, 1; 1, 1, 1, 1, 0, 1; 1, 0, 0, 0, 0, 1; 1, 1, 1, 0, 1, 1]"	0.00494542375571588	0.3256	0.07488227064707981	0.2849977884950822	0.015560181065999535
33	"[[5, 6, 2, 3][5][3, 4][1, 5, 2, 6][2, 1, 3, 5][5]] [6|(33300.0, 300.0)(36600.0, 325.0)(6600.0, 100.0)(50000.0, 450.0)(46600.0, 400.0)(10000.0, 125.0)] [3|(128.0, 1.0, 60.0)(128.0, 1.0, 60.0)(128.0, 5.0, 30.0)] [1, 0, 1, 1, 1, 1; 1, 1, 1, 1, 1, 0; 1, 1, 1, 1, 1, 1]"	0.010132553655045276	0.185	0.11330416087319713	0.4543282706202725	0.015660090500140316
34	"[[1][2, 3][2][1][1][3]] [3|(46600.0, 400.0)(30000.0, 275.0)(23300.0, 225.0)] [3|(128.0, 5.0, 30.0)(128.0, 1.0, 60.0)(128.0, 5.0, 30.0)] [1, 0, 1; 1, 1, 1; 1, 1, 1]"	0.07112594850954056	0.102	0.18693290447218924	0.41613915149290753	0.015787125099704022
35	"[[1][2, 3][2][1][1][3]] [3|(23300.0, 225.0)(50000.0, 450.0)(30000.0, 275.0)] [3|(128.0, 3.0, 45.0)(128.0, 1.0, 60.0)(128.0, 5.0, 30.0)] [1, 0, 1; 1, 1, 1; 1, 1, 1]"	0.04720246625286411	0.1085	0.22006954710010648	0.4265311906566138	0.015632839946253155
36	"[[2, 5, 3, 1][5][3, 4][1][6, 1, 2, 4][5]] [6|(46600.0, 400.0)(30000.0, 275.0)(50000.0, 450.0)(13300.0, 210.0)(50000.0, 450.0)(13300.0, 150.0)] [3|(128.0, 1.0, 60.0)(128.0, 3.0, 45.0)(128.0, 5.0, 30.0)] [1, 0, 1, 1, 1, 0; 1, 1, 1, 0, 1, 0; 1, 1, 0, 0, 1, 1]"	0.059584678782441315	0.207	0.08921934451994375	0.3551108048611312	0.015314702921064391
37	"[[1, 5, 2, 3][5][1, 5, 2, 4][1][6, 1, 2, 4][5]] [6|(23300.0, 225.0)(10000.0, 125.0)(50000.0, 450.0)(6600.0, 100.0)(50000.0, 630.0)(43300.0, 525.0)] [12|(128.0, 3.0, 45.0)(128.0, 1.0, 60.0)(128.0, 5.0, 30.0)(128.0, 5.0, 30.0)(192.0, 1.0, 102.0)(192.0, 3.0, 87.0)(256.0, 5.0, 114.0)(224.0, 3.0, 108.0)(256.0, 3.0, 129.0)(128.0, 3.0, 45.0)(224.0, 1.0, 123.0)(160.0, 1.0, 81.0)] [1, 0, 1, 1, 1, 1; 1, 1, 1, 1, 1, 0; 1, 1, 1, 1, 1, 1; 1, 1, 1, 1, 1, 0; 1, 1, 0, 1, 0, 0; 1, 1, 1, 0, 0, 1; 1, 1, 0, 0, 0, 1; 1, 1, 1, 0, 0, 1; 1, 1, 0, 1, 0, 1; 1, 0, 0, 1, 1, 0; 1, 0, 1, 0, 1, 1; 1, 1, 0, 0, 1, 1]"	0.018806010318842305	0.3009	0.12654161404137246	0.46519533499286786	0.015242343640136723
38	"[[5, 3, 1, 6][5][2, 6, 1, 5][1, 5, 2, 6][2, 4, 5, 6][5]] [6|(6600.0, 140.0)(50000.0, 450.0)(50000.0, 450.0)(6600.0, 100.0)(46600.0, 560.0)(10000.0, 125.0)] [3|(224.0, 1.0, 123.0)(128.0, 3.0, 45.0)(128.0, 5.0, 30.0)] [1, 1, 1, 1, 1, 1; 1, 1, 1, 1, 1, 0; 1, 1, 1, 1, 1, 1]"	0.009148759185209581	0.2023	0.13014398525096307	0.48771511593945993	0.015376584204034703
39	"[[2, 5, 3, 1][5][3, 4][1][6, 1, 2, 4][5]] [6|(23300.0, 225.0)(30000.0, 275.0)(50000.0, 450.0)(6600.0, 100.0)(50000.0, 450.0)(43300.0, 525.0)] [3|(128.0, 1.0, 60.0)(128.0, 3.0, 45.0)(128.0, 5.0, 30.0)] [1, 0, 1, 1, 1, 1; 1, 1, 1, 0, 1, 1; 1, 1, 0, 0, 1, 1]"	0.057563592871937325	0.216	0.11819099278399786	0.4033227052289584	0.015458161424199042
40	"[[2, 6, 5, 4][2, 3][2][1][1][3]] [6|(50000.0, 630.0)(50000.0, 450.0)(23300.0, 225.0)(23300.0, 225.0)(50000.0, 450.0)(13300.0, 150.0)] [3|(128.0, 1.0, 60.0)(128.0, 1.0, 60.0)(128.0, 5.0, 30.0)] [1, 0, 1, 0, 1, 1; 1, 1, 1, 1, 1, 1; 1, 0, 1, 1, 1, 1]"	0.019276589322096357	0.228	0.0808261387276213	0.3451880082598253	0.016032655242025733
41	"[[5, 3, 1, 6][5][2, 6, 1, 5][1, 5, 2, 6][2, 4, 5, 6][5]] [6|(50000.0, 630.0)(50000.0, 450.0)(50000.0, 450.0)(6600.0, 100.0)(50000.0, 630.0)(43300.0, 525.0)] [3|(128.0, 3.0, 45.0)(128.0, 1.0, 60.0)(128.0, 5.0, 30.0)] [1, 0, 1, 0, 1, 0; 1, 1, 1, 1, 1, 1; 1, 0, 1, 0, 1, 1]"	0.014174946922507895	0.292	0.07207892434475893	0.37636026972566505	0.015568907955568066
42	"[[5, 6, 2, 3][5][3, 4][1, 5, 2, 6][2, 1, 3, 5][5]] [6|(6600.0, 140.0)(10000.0, 125.0)(6600.0, 100.0)(6600.0, 100.0)(46600.0, 560.0)(10000.0, 125.0)] [3|(128.0, 3.0, 45.0)(128.0, 1.0, 60.0)(128.0, 5.0, 30.0)] [1, 0, 1, 1, 1, 0; 1, 1, 1, 1, 1, 0; 1, 1, 1, 1, 1, 1]"	0.02950434309195991	0.1285	0.17676133833993302	0.5831997377473664	0.015525484402338908
43	"[[2, 6, 5, 4][2, 3][2][1][1][3]] [6|(46600.0, 400.0)(50000.0, 450.0)(50000.0, 450.0)(6600.0, 100.0)(50000.0, 450.0)(43300.0, 525.0)] [3|(128.0, 5.0, 30.0)(128.0, 1.0, 60.0)(128.0, 5.0, 30.0)] [1, 1, 1, 1, 1, 0; 1, 1, 1, 1, 1, 0; 1, 1, 1, 1, 1, 1]"	0.09665413938703121	0.2495	0.0652717637170132	0.3959156260839487	0.016067354420813477
44	"[[5, 6, 2, 3][5][1, 4, 5, 3][1, 5, 2, 6][2, 1, 3, 5][5]] [6|(6600.0, 140.0)(50000.0, 450.0)(6600.0, 100.0)(6600.0, 100.0)(50000.0, 450.0)(10000.0, 125.0)] [3|(224.0, 1.0, 123.0)(128.0, 1.0, 60.0)(128.0, 5.0, 30.0)] [1, 1, 1, 1, 1, 1; 1, 1, 1, 0, 1, 0; 1, 1, 0, 1, 1, 1]"	0.009318682820049972	0.1578	0.1462373067410839	0.49671458855451023	0.01601233422373759
45	"[[5, 6, 2, 3][5][3, 4][1, 5, 2, 6][2][5]] [6|(46600.0, 400.0)(30000.0, 275.0)(50000.0, 450.0)(13300.0, 210.0)(50000.0, 450.0)(13300.0, 150.0)] [3|(128.0, 5.0, 30.0)(128.0, 3.0, 45.0)(128.0, 5.0, 30.0)] [1, 0, 1, 1, 1, 0; 1, 1, 1, 0, 1, 1; 1, 1, 0, 1, 1, 1]"	0.04190988038014004	0.204	0.0875003930382709	0.40698426829361756	0.01576095612204736
46	"[[2, 6, 5, 4][2, 3][2][1][1][3]] [6|(23300.0, 225.0)(50000.0, 450.0)(50000.0, 450.0)(6600.0, 100.0)(46600.0, 560.0)(43300.0, 525.0)] [12|(224.0, 1.0, 123.0)(128.0, 1.0, 60.0)(128.0, 5.0, 30.0)(160.0, 1.0, 81.0)(192.0, 1.0, 102.0)(128.0, 5.0, 30.0)(160.0, 1.0, 81.0)(128.0, 3.0, 45.0)(256.0, 3.0, 129.0)(160.0, 1.0, 81.0)(224.0, 1.0, 123.0)(160.0, 1.0, 81.0)] [1, 0, 1, 1, 1, 1; 1, 1, 1, 0, 1, 1; 1, 1, 0, 0, 0, 1; 1, 1, 1, 0, 0, 1; 1, 1, 1, 1, 1, 0; 1, 0, 0, 0, 1, 1; 1, 1, 0, 0, 1, 0; 1, 1, 0, 1, 1, 1; 1, 0, 0, 1, 0, 1; 1, 1, 1, 1, 1, 1; 1, 0, 0, 0, 0, 1; 1, 0, 1, 0, 1, 0]"	0.0048633815147320555	0.3276	0.08356106699572259	0.2926782727491852	0.01571460987038418
47	"[[5, 6, 2, 3][5][3, 4][1, 5, 2, 6][2, 1, 3, 5][5]] [6|(33300.0, 300.0)(10000.0, 125.0)(6600.0, 100.0)(50000.0, 450.0)(46600.0, 400.0)(13300.0, 150.0)] [12|(128.0, 1.0, 60.0)(128.0, 1.0, 60.0)(128.0, 5.0, 30.0)(128.0, 5.0, 30.0)(192.0, 1.0, 102.0)(192.0, 1.0, 102.0)(256.0, 5.0, 114.0)(128.0, 3.0, 45.0)(256.0, 5.0, 114.0)(128.0, 3.0, 45.0)(224.0, 1.0, 123.0)(160.0, 1.0, 81.0)] [1, 0, 1, 1, 1, 1; 1, 1, 1, 1, 1, 1; 1, 1, 1, 1, 1, 1; 1, 1, 1, 1, 1, 0; 1, 1, 1, 1, 0, 1; 1, 1, 1, 0, 1, 1; 1, 1, 0, 1, 0, 0; 1, 1, 1, 1, 1, 0; 1, 1, 0, 1, 0, 0; 1, 1, 0, 1, 0, 1; 1, 0, 1, 0, 1, 1; 1, 1, 1, 0, 1, 0]"	0.002526088059534796	0.2431	0.12431379965102769	0.47597873325879836	0.015675018119614532
48	"[[2, 5, 3, 1][5][3, 4][1][6, 1, 2, 4][5]] [6|(50000.0, 630.0)(50000.0, 450.0)(6600.0, 100.0)(46600.0, 560.0)(50000.0, 450.0)(13300.0, 150.0)] [12|(128.0, 1.0, 60.0)(128.0, 1.0, 60.0)(128.0, 5.0, 30.0)(128.0, 5.0, 30.0)(192.0, 1.0, 102.0)(128.0, 5.0, 30.0)(128.0, 5.0, 30.0)(128.0, 5.0, 30.0)(256.0, 5.0, 114.0)(160.0, 1.0, 81.0)(224.0, 1.0, 123.0)(160.0, 1.0, 81.0)] [1, 0, 1, 0, 1, 0; 1, 1, 1, 1, 1, 1; 1, 0, 1, 0, 1, 0; 1, 1, 1, 1, 1, 1; 1, 0, 1, 0, 1, 0; 1, 1, 1, 0, 1, 1; 1, 1, 0, 1, 1, 0; 1, 1, 1, 1, 1, 1; 1, 0, 0, 1, 1, 1; 1, 1, 1, 1, 1, 0; 1, 0, 0, 0, 1, 1; 1, 1, 1, 1, 1, 1]"	0.0067168961564977245	0.3111	0.08843523088614345	0.32629528246718653	0.015934208870479312
49	"[[1][2, 3][2][1][1][3]] [3|(46600.0, 400.0)(50000.0, 450.0)(23300.0, 225.0)] [3|(128.0, 5.0, 30.0)(128.0, 1.0, 60.0)(128.0, 5.0, 30.0)] [1, 0, 1; 1, 1, 0; 1, 1, 1]"	0.08610864301722003	0.1195	0.1581580596622272	0.39684355195127663	0.015974965258680186
50	"[[1, 5, 2, 3][5][1, 5, 2, 4][1][6, 1, 2, 4][5]] [6|(50000.0, 630.0)(10000.0, 125.0)(50000.0, 450.0)(16600.0, 175.0)(46600.0, 560.0)(43300.0, 525.0)] [12|(128.0, 1.0, 60.0)(128.0, 3.0, 45.0)(128.0, 5.0, 30.0)(160.0, 1.0, 81.0)(192.0, 1.0, 102.0)(160.0, 5.0, 51.0)(128.0, 5.0, 30.0)(128.0, 3.0, 45.0)(160.0, 1.0, 81.0)(128.0, 3.0, 45.0)(160.0, 1.0, 81.0)(160.0, 1.0, 81.0)] [1, 0, 1, 0, 1, 0; 1, 1, 1, 1, 1, 0; 1, 0, 1, 0, 1, 1; 1, 1, 1, 1, 0, 0; 1, 0, 0, 1, 0, 0; 1, 1, 1, 1, 0, 0; 1, 1, 0, 1, 1, 1; 1, 1, 0, 0, 1, 1; 1, 0, 1, 0, 0, 0; 1, 0, 0, 0, 1, 0; 1, 0, 0, 0, 0, 1; 1, 1, 0, 0, 1, 0]"	0.008467058282033936	0.3197	0.08216904307944971	0.33696571810386466	0.01574000920834302
