1	"[[3, 5, 4, 6][2][1][2][1][2]] [6|(50000.0, 630.0)(50000.0, 630.0)(50000.0, 450.0)(50000.0, 450.0)(43300.0, 525.0)(50000.0, 450.0)] [2|(128.0, 3.0, 45.0)(128.0, 1.0, 60.0)] [1, 1, 1, 1, 1, 0; 1, 1, 1, 1, 1, 1]"	0.09127552258510489	0.324	0.06375028325573927	0.3305241144193917	0.015376536598407292
2	"[[2][2][1][2][1][2]] [2|(6600.0, 100.0)(50000.0, 630.0)] [1|(128.0, 1.0, 60.0)] [1, 1]"	0.016867062910893398	0.079	0.39468570132624076	0.49390416012889593	0.015213263370506864
3	"[[2][2][1, 3, 2, 4][2][1][2]] [4|(50000.0, 630.0)(50000.0, 630.0)(6600.0, 140.0)(43300.0, 375.0)] [2|(128.0, 1.0, 60.0)(128.0, 1.0, 60.0)] [1, 1, 1, 0; 1, 1, 1, 1]"	0.007263363800412009	0.1895	0.11351952238993641	0.3663167689226122	0.01507628112521096
4	"[[2][2][1][2][1][2]] [2|(10000.0, 125.0)(46600.0, 400.0)] [1|(128.0, 5.0, 30.0)] [1, 1]"	0.08431159631721485	0.0555	0.3305816089412424	0.4797925144815425	0.01538259312869522
5	"[[2][2][1][2][1][2]] [2|(6600.0, 100.0)(46600.0, 400.0)] [1|(128.0, 5.0, 30.0)] [1, 1]"	0.08383781793781808	0.053	0.40921235812356427	0.5405863366103221	0.015893102886607557
6	"[[4][1, 3, 2, 5][3, 6][6, 2, 3, 5][1, 5][2]] [6|(50000.0, 630.0)(50000.0, 630.0)(50000.0, 450.0)(50000.0, 630.0)(50000.0, 630.0)(50000.0, 630.0)] [10|(128.0, 1.0, 60.0)(224.0, 1.0, 123.0)(160.0, 1.0, 81.0)(224.0, 5.0, 93.0)(224.0, 1.0, 123.0)(192.0, 1.0, 102.0)(224.0, 1.0, 123.0)(256.0, 3.0, 129.0)(256.0, 3.0, 129.0)(256.0, 1.0, 144.0)] [1, 1, 1, 0, 1, 1; 1, 1, 1, 1, 1, 1; 1, 0, 1, 1, 1, 0; 1, 1, 1, 1, 0, 0; 1, 1, 1, 0, 0, 1; 1, 1, 1, 0, 0, 1; 1, 1, 1, 1, 0, 1; 1, 1, 0, 0, 1, 1; 1, 1, 0, 1, 1, 1; 1, 1, 0, 1, 1, 1]"	0.007650785769293	0.4707	0.06395449831310145	0.23812517123260452	0.015828781889006494
7	"[[2][2][1, 3, 2, 4][2][5, 6, 2, 3][2]] [6|(50000.0, 630.0)(46600.0, 400.0)(50000.0, 450.0)(50000.0, 450.0)(50000.0, 630.0)(6600.0, 140.0)] [10|(128.0, 1.0, 60.0)(224.0, 1.0, 123.0)(160.0, 1.0, 81.0)(224.0, 5.0, 93.0)(224.0, 1.0, 123.0)(192.0, 1.0, 102.0)(224.0, 1.0, 123.0)(160.0, 5.0, 51.0)(256.0, 3.0, 129.0)(256.0, 1.0, 144.0)] [1, 1, 1, 0, 1, 1; 1, 1, 1, 1, 0, 1; 1, 0, 1, 1, 1, 1; 1, 1, 0, 1, 0, 1; 1, 1, 1, 1, 1, 1; 1, 1, 1, 1, 0, 1; 1, 0, 1, 1, 0, 1; 1, 0, 0, 0, 0, 1; 1, 1, 1, 1, 1, 1; 1, 1, 1, 1, 1, 0]"	0.0012351759784415364	0.3729	0.07510946910732803	0.39602629699350766	0.015761859546140684
8	"[[3, 5, 4, 6][2][1][2][1][2]] [6|(50000.0, 630.0)(46600.0, 400.0)(50000.0, 450.0)(26600.0, 250.0)(20000.0, 200.0)(16600.0, 175.0)] [1|(128.0, 5.0, 30.0)] [1, 1, 1, 1, 1, 1]"	0.30608781758280673	0.2135	0.06699800262839584	0.4188406496350232	0.0156633923686739
9	"[[4][1, 3, 2, 5][3, 6][6, 2, 3, 5][1, 5][2]] [6|(50000.0, 630.0)(50000.0, 630.0)(50000.0, 450.0)(50000.0, 630.0)(50000.0, 630.0)(50000.0, 630.0)] [10|(128.0, 1.0, 60.0)(192.0, 1.0, 102.0)(160.0, 1.0, 81.0)(128.0, 1.0, 60.0)(128.0, 1.0, 60.0)(192.0, 1.0, 102.0)(192.0, 3.0, 87.0)(160.0, 5.0, 51.0)(256.0, 3.0, 129.0)(256.0, 1.0, 144.0)] [1, 1, 1, 0, 1, 1; 1, 1, 1, 0, 0, 1; 1, 0, 0, 1, 1, 0; 1, 1, 0, 1, 0, 1; 1, 1, 1, 0, 1, 1; 1, 0, 1, 1, 0, 1; 1, 0, 1, 0, 1, 1; 1, 0, 0, 0, 1, 0; 1, 1, 1, 1, 0, 1; 1, 1, 1, 1, 0, 1]"	0.007357129032589558	0.4476	0.06396335169485105	0.2362739008728892	0.015672170962578266
10	"[[4][2][3, 5, 1, 2][4][5, 6, 2, 1][2]] [6|(16600.0, 175.0)(50000.0, 630.0)(6600.0, 140.0)(50000.0, 450.0)(20000.0, 200.0)(6600.0, 140.0)] [2|(128.0, 5.0, 30.0)(128.0, 1.0, 60.0)] [1, 1, 1, 1, 1, 1; 1, 1, 1, 1, 0, 1]"	0.19027836476561424	0.1825	0.09053563897743262	0.48671250761582774	0.015174825269543198
11	"[[3, 5, 4, 6][2][1, 3, 4, 2][2][5, 3, 2, 4][2]] [6|(10000.0, 125.0)(46600.0, 400.0)(50000.0, 450.0)(43300.0, 375.0)(20000.0, 200.0)(6600.0, 140.0)] [1|(128.0, 5.0, 30.0)] [1, 1, 1, 1, 1, 1]"	0.28054543379356844	0.172	0.07520226360569572	0.4286089068575968	0.01576511329919354
12	"[[4][2][3, 5, 1, 2][4][2, 5, 6, 4][2]] [6|(6600.0, 100.0)(46600.0, 400.0)(6600.0, 100.0)(43300.0, 375.0)(13300.0, 150.0)(6600.0, 140.0)] [1|(128.0, 3.0, 45.0)] [1, 1, 1, 1, 1, 1]"	0.23128682721713273	0.131	0.10694377616508823	0.4422930963279489	0.015905578877719925
13	"[[3, 5, 4, 6][2][1, 3, 4, 2][2][5, 3, 2, 4][2]] [6|(16600.0, 175.0)(46600.0, 400.0)(50000.0, 450.0)(36600.0, 325.0)(20000.0, 200.0)(6600.0, 140.0)] [1|(128.0, 5.0, 30.0)] [1, 1, 1, 1, 1, 1]"	0.2814732725021432	0.172	0.07233053446208355	0.42647634196015805	0.016244543359641983
14	"[[4][2][3, 5, 1, 2][4][2, 5, 6, 4][2]] [6|(23300.0, 225.0)(46600.0, 400.0)(6600.0, 140.0)(50000.0, 450.0)(20000.0, 200.0)(6600.0, 140.0)] [2|(128.0, 5.0, 30.0)(192.0, 3.0, 87.0)] [1, 1, 1, 1, 1, 1; 1, 1, 1, 1, 1, 1]"	0.1928371944414175	0.1672	0.08987692502964906	0.4922319950545614	0.015596004169764697
15	"[[4][2][3, 5, 1, 2][4][2, 5, 6, 4][2]] [6|(30000.0, 275.0)(46600.0, 400.0)(6600.0, 140.0)(43300.0, 375.0)(20000.0, 200.0)(16600.0, 175.0)] [1|(128.0, 5.0, 30.0)] [1, 1, 1, 1, 1, 1]"	0.3853744002436722	0.1595	0.08870970990914512	0.491208237107856	0.01559222668160581
16	"[[4][2][3, 5, 1, 2][4][2, 5, 6, 4][2]] [6|(30000.0, 275.0)(50000.0, 630.0)(50000.0, 450.0)(50000.0, 630.0)(20000.0, 200.0)(33300.0, 420.0)] [2|(128.0, 1.0, 60.0)(192.0, 3.0, 87.0)] [1, 1, 1, 0, 1, 1; 1, 1, 1, 1, 0, 1]"	0.10363921095312975	0.2752	0.06976992450331754	0.34546297102632395	0.015509261931857577
17	"[[3, 5, 4, 6][2][1, 3, 4, 2][2][5, 3, 2, 4][2]] [6|(50000.0, 630.0)(50000.0, 630.0)(50000.0, 450.0)(10000.0, 125.0)(20000.0, 200.0)(50000.0, 450.0)] [2|(128.0, 1.0, 60.0)(128.0, 1.0, 60.0)] [1, 1, 1, 1, 1, 1; 1, 1, 1, 1, 1, 1]"	0.028107037844707132	0.2605	0.07489227657316115	0.3149555899398781	0.015248417605772238
18	"[[2][2][1][2][1][2]] [2|(23300.0, 225.0)(46600.0, 400.0)] [1|(128.0, 1.0, 60.0)] [1, 1]"	0.0169773680248672	0.0685	0.2396115689014196	0.3863230231954694	0.01628690635319867
19	"[[3, 5, 4, 6][2][1][2][1][2]] [6|(50000.0, 630.0)(46600.0, 400.0)(50000.0, 450.0)(43300.0, 375.0)(20000.0, 200.0)(16600.0, 175.0)] [1|(128.0, 5.0, 30.0)] [1, 1, 1, 1, 1, 1]"	0.3040406790577219	0.226	0.06687395648728722	0.41705647622150605	0.015634200286295332
20	"[[4][2][3, 5, 1, 2][4][5, 6, 2, 1][2]] [6|(16600.0, 175.0)(50000.0, 630.0)(6600.0, 140.0)(50000.0, 450.0)(20000.0, 200.0)(6600.0, 140.0)] [1|(128.0, 5.0, 30.0)] [1, 1, 1, 1, 1, 1]"	0.38120947192351246	0.1765	0.09059961520441363	0.4850386762160246	0.015523330009705337
21	"[[2][2][1][2][1][2]] [2|(6600.0, 100.0)(46600.0, 400.0)] [1|(128.0, 1.0, 60.0)] [1, 1]"	0.016890614869883164	0.056	0.41091764889769733	0.5200608316776055	0.015695644310025576
22	"[[2][2][1, 3, 2, 4][2][3, 6, 5, 2][2]] [6|(23300.0, 225.0)(50000.0, 630.0)(6600.0, 140.0)(50000.0, 450.0)(50000.0, 630.0)(50000.0, 450.0)] [10|(128.0, 1.0, 60.0)(192.0, 1.0, 102.0)(224.0, 5.0, 93.0)(224.0, 5.0, 93.0)(224.0, 1.0, 123.0)(192.0, 1.0, 102.0)(224.0, 1.0, 123.0)(256.0, 3.0, 129.0)(256.0, 3.0, 129.0)(192.0, 3.0, 87.0)] [1, 1, 0, 1, 1, 1; 1, 0, 1, 1, 1, 1; 1, 1, 1, 1, 1, 1; 1, 1, 1, 1, 0, 1; 1, 1, 1, 1, 1, 1; 1, 1, 1, 1, 0, 1; 1, 0, 1, 0, 1, 1; 1, 1, 0, 0, 1, 1; 1, 1, 1, 1, 0, 1; 1, 1, 1, 1, 1, 0]"	0.0028849281952615428	0.3566	0.08221551174318766	0.3960586118121875	0.015122048183767549
23	"[[2][2][1, 3, 2, 4][2][1][2]] [4|(16600.0, 175.0)(46600.0, 400.0)(6600.0, 100.0)(36600.0, 325.0)] [1|(128.0, 5.0, 30.0)] [1, 1, 1, 1]"	0.07169903745395603	0.103	0.1352491089911747	0.4305314467968864	0.015967277248086643
24	"[[2][2][1][2][1][2]] [2|(6600.0, 100.0)(46600.0, 400.0)] [1|(128.0, 5.0, 30.0)] [1, 1]"	0.08472605281922173	0.053	0.40942572897776786	0.5417358600713318	0.015775822093248543
25	"[[3, 5, 4, 6][2][2, 1, 6, 3][2][1][2]] [6|(50000.0, 630.0)(50000.0, 630.0)(50000.0, 450.0)(50000.0, 630.0)(50000.0, 630.0)(33300.0, 420.0)] [2|(128.0, 1.0, 60.0)(128.0, 1.0, 60.0)] [1, 1, 1, 0, 1, 1; 1, 1, 1, 1, 0, 1]"	0.02928399414521658	0.351	0.06497449883057209	0.2876570024190533	0.015147954789289216
26	"[[2][2][1, 3, 2, 4][2][1][2]] [4|(6600.0, 100.0)(46600.0, 400.0)(6600.0, 100.0)(10000.0, 125.0)] [1|(128.0, 5.0, 30.0)] [1, 1, 1, 1]"	0.07185458605665361	0.0755	0.181326703047379	0.4978931815470716	0.01591783642330617
27	"[[2][2][1][2][1][2]] [2|(10000.0, 125.0)(46600.0, 400.0)] [1|(128.0, 1.0, 60.0)] [1, 1]"	0.016978116112686688	0.0585	0.32829220946715065	0.45448074475178496	0.016180487492661273
28	"[[3, 5, 4, 6][2][1, 3, 4, 2][2][5, 3, 2, 4][2]] [6|(10000.0, 125.0)(50000.0, 630.0)(50000.0, 450.0)(43300.0, 375.0)(20000.0, 280.0)(6600.0, 140.0)] [1|(160.0, 3.0, 66.0)] [1, 1, 1, 1, 1, 1]"	0.16982493345517383	0.2066	0.0721249977006898	0.35615863387498936	0.015651368274804112
29	"[[2][2][1, 3, 2, 4][2][1][2]] [4|(6600.0, 100.0)(46600.0, 400.0)(50000.0, 450.0)(10000.0, 125.0)] [1|(128.0, 1.0, 60.0)] [1, 1, 1, 1]"	0.014544192713742205	0.1135	0.16516994871008905	0.458327895273255	0.01579851460733115
30	"[[2][2][1][2][1][2]] [2|(36600.0, 325.0)(46600.0, 400.0)] [1|(128.0, 3.0, 45.0)] [1, 1]"	0.051246973352040856	0.077	0.2154362742588334	0.3810975542836845	0.015725938408503764
31	"[[2][2][1][2][1][2]] [2|(6600.0, 100.0)(46600.0, 400.0)] [1|(128.0, 5.0, 30.0)] [1, 1]"	0.08509314545192258	0.053	0.4061676032109524	0.5380258168899781	0.015840198995279185
32	"[[2][2][1, 3, 2, 4][2][1][2]] [4|(16600.0, 175.0)(46600.0, 400.0)(6600.0, 100.0)(10000.0, 125.0)] [1|(128.0, 5.0, 30.0)] [1, 1, 1, 1]"	0.0723266948297545	0.083	0.1447801778193715	0.44336261086658557	0.01614147074590259
33	"[[2][2][1][2][1][2]] [2|(16600.0, 175.0)(46600.0, 400.0)] [1|(128.0, 3.0, 45.0)] [1, 1]"	0.05063267930409708	0.062	0.26696623796359703	0.41958201455034416	0.016085258682706834
34	"[[4][2][3, 5, 1, 2][4][5, 6, 2, 1][2]] [6|(50000.0, 630.0)(50000.0, 630.0)(6600.0, 140.0)(50000.0, 450.0)(20000.0, 200.0)(6600.0, 140.0)] [1|(128.0, 5.0, 30.0)] [1, 1, 1, 1, 1, 1]"	0.3818399949331122	0.222	0.08565702172747615	0.4769393947376874	0.01532123414319172
35	"[[2][2][1][2][1][2]] [2|(13300.0, 150.0)(46600.0, 400.0)] [1|(128.0, 5.0, 30.0)] [1, 1]"	0.08446505258073513	0.058	0.29051842776423537	0.447939098764276	0.015618224291331386
36	"[[2][2][1][2][1][2]] [2|(16600.0, 175.0)(50000.0, 630.0)] [1|(128.0, 5.0, 30.0)] [1, 1]"	0.08381458898827687	0.0835	0.254737500139924	0.4080836480711417	0.01552733027213854
37	"[[2, 3, 1, 4][2][3, 5, 1, 2][4][2, 5, 6, 4][2]] [6|(6600.0, 100.0)(46600.0, 400.0)(6600.0, 100.0)(26600.0, 250.0)(13300.0, 150.0)(6600.0, 140.0)] [1|(128.0, 5.0, 30.0)] [1, 1, 1, 1, 1, 1]"	0.16412450214259405	0.117	0.1157324585454343	0.5005178927795426	0.01605255983733479
38	"[[4][2][3, 5, 1, 2][4][2, 5, 6, 4][2]] [6|(6600.0, 100.0)(50000.0, 630.0)(6600.0, 100.0)(43300.0, 375.0)(13300.0, 150.0)(6600.0, 140.0)] [1|(128.0, 3.0, 45.0)] [1, 1, 1, 1, 1, 1]"	0.22986708188406785	0.154	0.10456207374476477	0.42724132449605373	0.015572129776978211
39	"[[2][2][1][2][1][2]] [2|(13300.0, 150.0)(50000.0, 630.0)] [1|(128.0, 1.0, 60.0)] [1, 1]"	0.017000615766651496	0.084	0.27854298721516124	0.40410149178386306	0.015281066658331828
40	"[[3, 5, 4, 6][2][1, 3, 4, 2][2][5, 3, 2, 4][2]] [6|(16600.0, 175.0)(46600.0, 400.0)(50000.0, 450.0)(43300.0, 375.0)(20000.0, 200.0)(6600.0, 140.0)] [1|(128.0, 1.0, 60.0)] [1, 1, 1, 1, 1, 1]"	0.05660037710862102	0.18	0.07191047649953447	0.3239912496554967	0.016163659452206516
41	"[[2][2][1][2][1][2]] [2|(10000.0, 125.0)(50000.0, 630.0)] [1|(128.0, 1.0, 60.0)] [1, 1]"	0.01701485183657744	0.0815	0.3172209598333529	0.43354588436467834	0.015401893140686723
42	"[[4][2][3, 5, 1, 2][4][2, 5, 6, 4][2]] [6|(36600.0, 325.0)(46600.0, 400.0)(6600.0, 100.0)(50000.0, 450.0)(20000.0, 200.0)(16600.0, 175.0)] [2|(128.0, 3.0, 45.0)(128.0, 1.0, 60.0)] [1, 1, 1, 1, 1, 1; 1, 1, 1, 1, 1, 0]"	0.11541954663611935	0.1755	0.08379615160472753	0.3965839879427955	0.015775282188256985
43	"[[4][2][3, 5, 1, 2][4][2, 5, 6, 4][2]] [6|(6600.0, 100.0)(46600.0, 400.0)(6600.0, 100.0)(43300.0, 375.0)(13300.0, 150.0)(6600.0, 140.0)] [1|(128.0, 5.0, 30.0)] [1, 1, 1, 1, 1, 1]"	0.38513237492684715	0.1295	0.10707683020772973	0.5284109067555378	0.016096310057482088
44	"[[3, 5, 4, 6][2][1][2][1][2]] [6|(23300.0, 225.0)(50000.0, 630.0)(50000.0, 450.0)(43300.0, 375.0)(20000.0, 200.0)(50000.0, 450.0)] [1|(160.0, 3.0, 66.0)] [1, 1, 1, 1, 1, 1]"	0.18302919456034084	0.2396	0.07605693609931918	0.35393279955908374	0.015629041453010334
45	"[[2][2][1, 3, 2, 4][2][1][2]] [4|(6600.0, 100.0)(46600.0, 400.0)(6600.0, 100.0)(26600.0, 250.0)] [1|(128.0, 1.0, 60.0)] [1, 1, 1, 1]"	0.014448618783259929	0.091	0.1748358221174252	0.4712523319975197	0.01573002846412648
46	"[[3, 5, 4, 6][2][1, 3, 4, 2][2][5, 3, 2, 4][2]] [6|(50000.0, 630.0)(50000.0, 630.0)(50000.0, 450.0)(43300.0, 375.0)(50000.0, 630.0)(16600.0, 175.0)] [10|(128.0, 1.0, 60.0)(224.0, 1.0, 123.0)(160.0, 1.0, 81.0)(128.0, 1.0, 60.0)(128.0, 1.0, 60.0)(192.0, 3.0, 87.0)(192.0, 3.0, 87.0)(160.0, 5.0, 51.0)(256.0, 3.0, 129.0)(256.0, 1.0, 144.0)] [1, 1, 1, 0, 1, 1; 1, 1, 1, 0, 0, 1; 1, 0, 0, 1, 1, 0; 1, 1, 0, 1, 0, 1; 1, 1, 1, 0, 1, 1; 1, 0, 1, 1, 0, 1; 1, 0, 1, 1, 0, 0; 1, 0, 0, 0, 1, 1; 1, 1, 1, 1, 1, 1; 1, 1, 1, 1, 1, 1]"	0.005651670174140335	0.3772	0.06444744821626855	0.29952200830047393	0.01558413842349641
47	"[[2][2][1][2][1][2]] [2|(6600.0, 100.0)(50000.0, 630.0)] [1|(128.0, 3.0, 45.0)] [1, 1]"	0.05090378827857948	0.0775	0.39930328445521	0.5087972431026185	0.015504358856535966
48	"[[4][2][3, 5, 1, 2][4][5, 6, 2, 1][2]] [6|(16600.0, 175.0)(50000.0, 630.0)(6600.0, 140.0)(50000.0, 450.0)(50000.0, 630.0)(6600.0, 140.0)] [2|(128.0, 1.0, 60.0)(128.0, 1.0, 60.0)] [1, 1, 1, 1, 1, 1; 1, 1, 1, 1, 0, 1]"	0.03808226854780067	0.2285	0.08691153731944874	0.336153425507422	0.01536377366209878
49	"[[3, 5, 4, 6][2][1, 3, 4, 2][2][5, 3, 2, 4][2]] [6|(13300.0, 150.0)(50000.0, 630.0)(50000.0, 450.0)(43300.0, 375.0)(20000.0, 280.0)(16600.0, 175.0)] [1|(128.0, 1.0, 60.0)] [1, 1, 1, 1, 1, 1]"	0.056406618776852005	0.212	0.07022493671694756	0.30827300382598255	0.01569961810177125
50	"[[4][1, 3, 2, 5][3, 6][6, 2, 3, 5][1, 5][2]] [6|(50000.0, 630.0)(50000.0, 630.0)(50000.0, 450.0)(36600.0, 325.0)(50000.0, 630.0)(50000.0, 630.0)] [1|(128.0, 1.0, 60.0)] [1, 1, 1, 1, 1, 1]"	0.07522833451767656	0.3355	0.06940350070339575	0.26684876649440514	0.015706049933920233
