1	"[[5][2][5][3][1][4]] [5|(6600.0, 100.0)(50000.0, 630.0)(26600.0, 250.0)(26600.0, 250.0)(50000.0, 630.0)] [2|(128.0, 3.0, 45.0)(128.0, 1.0, 60.0)] [1, 1, 0, 0, 0; 0, 1, 1, 1, 1]"	0.05095571095058399	0.1965	0.1245604219253045	0.3517223969439749	0.014975178076400506
2	"[[5][2][1][3][4][6]] [6|(50000.0, 450.0)(50000.0, 630.0)(50000.0, 630.0)(50000.0, 450.0)(50000.0, 630.0)(50000.0, 630.0)] [2|(256.0, 1.0, 144.0)(192.0, 1.0, 102.0)] [1, 1, 0, 0, 0, 0; 0, 1, 1, 1, 1, 1]"	0.04409458607532002	0.3666	0.0638591077035741	0.2528441841992587	0.015618021079785847
3	"[[2][2][1][3][1][2]] [3|(6600.0, 100.0)(40000.0, 350.0)(10000.0, 125.0)] [2|(128.0, 5.0, 30.0)(128.0, 5.0, 30.0)] [1, 1, 0; 0, 1, 1]"	0.09232501701717856	0.0635	0.3916274582675146	0.684496488133476	0.015572472892341937
4	"[[2][2][1][3][1][2]] [3|(6600.0, 100.0)(40000.0, 350.0)(10000.0, 125.0)] [2|(128.0, 5.0, 30.0)(128.0, 5.0, 30.0)] [1, 1, 0; 0, 1, 1]"	0.09183509456227082	0.0635	0.3907509422611178	0.6837575739102241	0.015702227296258517
5	"[[5][2][1][3][4][6]] [6|(50000.0, 450.0)(50000.0, 630.0)(50000.0, 630.0)(50000.0, 450.0)(50000.0, 630.0)(50000.0, 630.0)] [2|(224.0, 1.0, 123.0)(128.0, 3.0, 45.0)] [1, 1, 0, 0, 0, 0; 0, 1, 1, 1, 1, 1]"	0.12192292411385736	0.3588	0.0637822719362382	0.37219983929313477	0.01580066751668561
6	"[[2][2][2][2][1][3]] [3|(33300.0, 300.0)(50000.0, 450.0)(46600.0, 400.0)] [2|(224.0, 1.0, 123.0)(192.0, 1.0, 102.0)] [1, 1, 0; 0, 1, 1]"	0.006895980325681365	0.1375	0.13211621117583164	0.3286054226940359	0.016028214365220575
7	"[[2][2][1][3][1][2]] [3|(6600.0, 100.0)(50000.0, 630.0)(16600.0, 175.0)] [2|(192.0, 1.0, 102.0)(128.0, 1.0, 60.0)] [1, 1, 0; 0, 1, 1]"	0.018354034669758986	0.1067	0.31820199333335003	0.5319260518387781	0.015146971111530249
8	"[[1][2][3][5][4][2]] [5|(50000.0, 450.0)(50000.0, 630.0)(50000.0, 630.0)(26600.0, 250.0)(46600.0, 400.0)] [2|(128.0, 5.0, 30.0)(128.0, 5.0, 30.0)] [1, 1, 0, 0, 0; 0, 1, 1, 1, 1]"	0.2014623466158481	0.242	0.08196620701258733	0.40993810220535054	0.015295804617812827
9	"[[1][2][3][5][4][2]] [5|(33300.0, 300.0)(50000.0, 630.0)(10000.0, 125.0)(26600.0, 250.0)(50000.0, 630.0)] [2|(192.0, 5.0, 72.0)(128.0, 1.0, 60.0)] [1, 1, 0, 0, 0; 0, 1, 1, 1, 1]"	0.12826567451598703	0.2067	0.12168162673409236	0.43297094846239076	0.015090050911290218
10	"[[1][2][4][2][4][3]] [4|(50000.0, 450.0)(50000.0, 630.0)(50000.0, 630.0)(50000.0, 450.0)] [2|(224.0, 1.0, 123.0)(128.0, 1.0, 60.0)] [1, 1, 0, 0; 0, 1, 1, 1]"	0.033977253122143974	0.2343	0.09574107607627648	0.24723332986035867	0.015754153026331017
11	"[[2][2][1][3][3][2]] [3|(50000.0, 450.0)(50000.0, 630.0)(13300.0, 150.0)] [2|(256.0, 1.0, 144.0)(192.0, 1.0, 102.0)] [1, 1, 0; 0, 1, 1]"	0.018488585056046416	0.1476	0.22204563487775006	0.42263709514978987	0.015056855400997018
12	"[[5][2][1][3][4][4]] [5|(50000.0, 450.0)(50000.0, 450.0)(50000.0, 630.0)(50000.0, 450.0)(50000.0, 450.0)] [2|(128.0, 3.0, 45.0)(192.0, 1.0, 102.0)] [1, 1, 0, 0, 0; 0, 1, 1, 1, 1]"	0.05390800821924557	0.2577	0.07690813457103879	0.2648064136210271	0.016320164738437323
13	"[[1][2][3][2][1][2]] [3|(33300.0, 300.0)(50000.0, 630.0)(10000.0, 125.0)] [2|(128.0, 5.0, 30.0)(128.0, 5.0, 30.0)] [1, 1, 0; 0, 1, 1]"	0.15185965886524044	0.1115	0.1998185357347426	0.46891347198615413	0.015476254258893945
14	"[[2][2][1][3][1][2]] [3|(6600.0, 100.0)(43300.0, 525.0)(46600.0, 400.0)] [2|(160.0, 3.0, 66.0)(128.0, 1.0, 60.0)] [1, 1, 0; 0, 1, 1]"	0.03565303613233938	0.1151	0.2797087078262674	0.5487615443667992	0.015183292573252533
15	"[[2][2][1][3][1][2]] [3|(6600.0, 100.0)(50000.0, 630.0)(50000.0, 630.0)] [2|(160.0, 3.0, 66.0)(128.0, 3.0, 45.0)] [1, 1, 0; 0, 1, 1]"	0.055367331273437716	0.1471	0.2639354154628892	0.5126280340967294	0.015226005128914161
16	"[[2][2][1][3][1][2]] [3|(6600.0, 100.0)(50000.0, 450.0)(10000.0, 125.0)] [2|(128.0, 5.0, 30.0)(128.0, 5.0, 30.0)] [1, 1, 0; 0, 1, 1]"	0.09240422271240141	0.0735	0.36951401972506354	0.6124184262609482	0.015212651012918656
17	"[[1][2][3][2][1][2]] [3|(33300.0, 300.0)(46600.0, 400.0)(13300.0, 150.0)] [2|(224.0, 1.0, 123.0)(128.0, 5.0, 30.0)] [1, 1, 0; 0, 1, 1]"	0.05020841051904626	0.1003	0.18860307373741303	0.3589943956977167	0.01638861352972068
18	"[[5][2][1][3][4][6]] [6|(50000.0, 450.0)(50000.0, 630.0)(50000.0, 630.0)(50000.0, 450.0)(50000.0, 630.0)(50000.0, 630.0)] [2|(128.0, 5.0, 30.0)(128.0, 3.0, 45.0)] [1, 1, 0, 0, 0, 0; 0, 1, 1, 1, 1, 1]"	0.14150504932911973	0.3495	0.06397438471905245	0.38324323396548915	0.015395650405410464
19	"[[5][2][1][3][4][6]] [6|(20000.0, 280.0)(50000.0, 630.0)(43300.0, 375.0)(20000.0, 200.0)(50000.0, 630.0)(20000.0, 280.0)] [2|(128.0, 5.0, 30.0)(192.0, 1.0, 102.0)] [1, 1, 0, 0, 0, 0; 0, 1, 1, 1, 1, 1]"	0.06374710581599272	0.2527	0.08728593938773427	0.3401180607477209	0.015375055563555567
20	"[[1][2][3][2][1][2]] [3|(50000.0, 450.0)(50000.0, 630.0)(50000.0, 630.0)] [2|(128.0, 5.0, 30.0)(192.0, 3.0, 87.0)] [1, 1, 0; 0, 1, 1]"	0.14297369528090764	0.1827	0.12794073543529202	0.39256581744153185	0.015437758558368193
21	"[[2][2][1][3][1][2]] [3|(6600.0, 100.0)(40000.0, 350.0)(10000.0, 125.0)] [2|(128.0, 5.0, 30.0)(128.0, 1.0, 60.0)] [1, 1, 0; 0, 1, 1]"	0.05237751116554466	0.0665	0.38941087020962345	0.6622118414659021	0.015973679663713863
22	"[[2][2][2][2][1][3]] [3|(33300.0, 300.0)(50000.0, 450.0)(46600.0, 400.0)] [2|(224.0, 1.0, 123.0)(128.0, 3.0, 45.0)] [1, 1, 0; 0, 1, 1]"	0.014094597372067353	0.1318	0.13221059669325172	0.34549136337302333	0.016276226080168568
23	"[[1][2][3][1][4][2]] [4|(50000.0, 450.0)(50000.0, 450.0)(50000.0, 630.0)(26600.0, 250.0)] [2|(128.0, 5.0, 30.0)(128.0, 1.0, 60.0)] [1, 1, 0, 0; 0, 1, 1, 1]"	0.16879037670894392	0.187	0.10123243396018088	0.387006938515313	0.01571598255453663
24	"[[2][2][1][3][1][2]] [3|(6600.0, 100.0)(46600.0, 400.0)(13300.0, 150.0)] [2|(224.0, 1.0, 123.0)(128.0, 3.0, 45.0)] [1, 1, 0; 0, 1, 1]"	0.038510375201115506	0.0818	0.3446611060377595	0.5773610780671956	0.015253488141806546
25	"[[1][2][3][5][4][2]] [5|(50000.0, 450.0)(50000.0, 630.0)(26600.0, 250.0)(26600.0, 250.0)(50000.0, 450.0)] [2|(128.0, 5.0, 30.0)(128.0, 5.0, 30.0)] [1, 1, 0, 0, 0; 0, 1, 1, 1, 1]"	0.20278436247934198	0.209	0.08792430705019298	0.4205279374455383	0.015571193817019397
26	"[[2][2][1][3][1][2]] [3|(6600.0, 100.0)(40000.0, 350.0)(10000.0, 125.0)] [2|(128.0, 5.0, 30.0)(128.0, 3.0, 45.0)] [1, 1, 0; 0, 1, 1]"	0.0720333370621699	0.065	0.39175905469659994	0.6756655765749686	0.01612019849597504
27	"[[2][2][1][3][3][2]] [3|(6600.0, 100.0)(40000.0, 350.0)(13300.0, 150.0)] [2|(128.0, 3.0, 45.0)(128.0, 5.0, 30.0)] [1, 1, 0; 0, 1, 1]"	0.08214323235828866	0.0675	0.32939811065230323	0.6080773910685378	0.015709463187669984
28	"[[1][2][3][1][4][2]] [4|(50000.0, 450.0)(50000.0, 450.0)(46600.0, 400.0)(26600.0, 250.0)] [2|(128.0, 5.0, 30.0)(128.0, 3.0, 45.0)] [1, 1, 0, 0; 0, 1, 1, 1]"	0.1848646845418725	0.1625	0.10198409270041799	0.39823705446701085	0.015733497192389003
29	"[[2][2][1][3][1][2]] [3|(50000.0, 450.0)(50000.0, 450.0)(10000.0, 125.0)] [2|(128.0, 5.0, 30.0)(128.0, 5.0, 30.0)] [1, 1, 0; 0, 1, 1]"	0.09249958388719964	0.1085	0.23482335034490953	0.4594527837154563	0.015505182066119873
30	"[[2][2][1][3][1][2]] [3|(6600.0, 100.0)(40000.0, 350.0)(13300.0, 150.0)] [2|(128.0, 3.0, 45.0)(128.0, 1.0, 60.0)] [1, 1, 0; 0, 1, 1]"	0.03525597774953328	0.0705	0.358830895226569	0.6283592806102405	0.015813632853181853
31	"[[1][2][3][2][4][2]] [4|(50000.0, 450.0)(50000.0, 630.0)(43300.0, 375.0)(50000.0, 450.0)] [2|(256.0, 1.0, 144.0)(192.0, 3.0, 87.0)] [1, 1, 0, 0; 0, 1, 1, 1]"	0.04744473414142402	0.2136	0.09761094459865399	0.2943163637935625	0.015607550492742383
32	"[[2][2][1][3][1][2]] [3|(6600.0, 100.0)(40000.0, 350.0)(10000.0, 125.0)] [2|(128.0, 5.0, 30.0)(128.0, 1.0, 60.0)] [1, 1, 0; 0, 1, 1]"	0.052505051181181664	0.0665	0.392341971774544	0.6655257218600461	0.015752156308447212
33	"[[1][2][3][5][4][2]] [5|(50000.0, 450.0)(50000.0, 630.0)(43300.0, 375.0)(50000.0, 450.0)(50000.0, 630.0)] [2|(192.0, 5.0, 72.0)(128.0, 1.0, 60.0)] [1, 1, 0, 0, 0; 0, 1, 1, 1, 1]"	0.1279117776720611	0.2667	0.07814211717122531	0.36003692121229497	0.015419348761362067
34	"[[2][2][1][3][1][2]] [3|(33300.0, 300.0)(50000.0, 450.0)(10000.0, 125.0)] [2|(224.0, 1.0, 123.0)(128.0, 5.0, 30.0)] [1, 1, 0; 0, 1, 1]"	0.058425721164096285	0.1028	0.24537233796784666	0.44655962245670944	0.015464561079872817
35	"[[1][2][3][5][4][6]] [6|(50000.0, 450.0)(50000.0, 630.0)(50000.0, 630.0)(26600.0, 250.0)(46600.0, 400.0)(50000.0, 450.0)] [2|(256.0, 1.0, 144.0)(128.0, 5.0, 30.0)] [1, 1, 0, 0, 0, 0; 0, 1, 1, 1, 1, 1]"	0.1314065507215449	0.2984	0.06823390033649315	0.370117527415922	0.015293951560501673
36	"[[2][2][2][3][1][2]] [3|(6600.0, 100.0)(46600.0, 400.0)(10000.0, 125.0)] [2|(128.0, 5.0, 30.0)(128.0, 1.0, 60.0)] [1, 1, 0; 0, 1, 1]"	0.027495417273501174	0.0715	0.2914552364630157	0.515478627479381	0.01585646918118701
37	"[[1][2][3][2][1][2]] [3|(50000.0, 450.0)(50000.0, 450.0)(26600.0, 250.0)] [2|(128.0, 3.0, 45.0)(128.0, 3.0, 45.0)] [1, 1, 0; 0, 1, 1]"	0.0912840732637481	0.124	0.13968441664107503	0.3382538801261151	0.016056042531835887
38	"[[2][2][1][3][1][2]] [3|(6600.0, 100.0)(40000.0, 350.0)(13300.0, 150.0)] [2|(128.0, 5.0, 30.0)(128.0, 3.0, 45.0)] [1, 1, 0; 0, 1, 1]"	0.07243598541701989	0.0675	0.3566272689179984	0.647235326201956	0.015646802948007403
39	"[[2][2][1][3][1][2]] [3|(6600.0, 100.0)(46600.0, 400.0)(10000.0, 125.0)] [2|(128.0, 5.0, 30.0)(128.0, 5.0, 30.0)] [1, 1, 0; 0, 1, 1]"	0.09246539052076033	0.0685	0.3777654936189117	0.6362655110556388	0.015695650558371278
40	"[[2][2][1][4][3][2]] [4|(50000.0, 450.0)(50000.0, 450.0)(26600.0, 250.0)(26600.0, 250.0)] [2|(128.0, 5.0, 30.0)(160.0, 1.0, 81.0)] [1, 1, 0, 0; 0, 1, 1, 1]"	0.03840513192086052	0.1511	0.11884930027814766	0.3731136960052983	0.016173792664492207
41	"[[2][2][2][2][1][3]] [3|(6600.0, 100.0)(40000.0, 350.0)(46600.0, 400.0)] [2|(128.0, 5.0, 30.0)(192.0, 1.0, 102.0)] [1, 1, 0; 0, 1, 1]"	0.020995063402796842	0.0982	0.20531604496377862	0.4562691296465694	0.015901434054408456
42	"[[2][2][1][2][3][2]] [3|(6600.0, 100.0)(50000.0, 450.0)(13300.0, 150.0)] [2|(192.0, 1.0, 102.0)(128.0, 3.0, 45.0)] [1, 1, 0; 0, 1, 1]"	0.015424702459946956	0.0847	0.2367754736093474	0.44928884298513744	0.015334919236456874
43	"[[1][2][3][2][1][2]] [3|(33300.0, 300.0)(50000.0, 630.0)(13300.0, 150.0)] [2|(224.0, 1.0, 123.0)(128.0, 1.0, 60.0)] [1, 1, 0; 0, 1, 1]"	0.030462493351073306	0.1263	0.18308400553928403	0.3316821657185012	0.01561882979529584
44	"[[5][2][1][3][4][6]] [6|(50000.0, 450.0)(50000.0, 630.0)(26600.0, 250.0)(50000.0, 450.0)(50000.0, 450.0)(50000.0, 450.0)] [2|(192.0, 3.0, 87.0)(128.0, 1.0, 60.0)] [1, 1, 0, 0, 0, 0; 0, 1, 1, 1, 1, 1]"	0.0539884534959153	0.2827	0.07573262149224919	0.2768127433097046	0.015738323040069408
45	"[[5][2][1][3][4][6]] [6|(36600.0, 325.0)(50000.0, 630.0)(46600.0, 400.0)(50000.0, 450.0)(50000.0, 450.0)(50000.0, 450.0)] [2|(224.0, 1.0, 123.0)(128.0, 3.0, 45.0)] [1, 1, 0, 0, 0, 0; 0, 1, 1, 1, 1, 1]"	0.12199877859628751	0.2873	0.06744633139941199	0.3797785682013247	0.015469994619527165
46	"[[2][2][1][3][3][2]] [3|(6600.0, 100.0)(40000.0, 350.0)(13300.0, 150.0)] [2|(128.0, 3.0, 45.0)(128.0, 3.0, 45.0)] [1, 1, 0; 0, 1, 1]"	0.05520245226769736	0.069	0.32972230118459384	0.5938166597935721	0.015749800321073794
47	"[[2][2][1][4][3][2]] [4|(6600.0, 100.0)(46600.0, 400.0)(10000.0, 125.0)(20000.0, 200.0)] [2|(128.0, 5.0, 30.0)(128.0, 3.0, 45.0)] [1, 1, 0, 0; 0, 1, 1, 1]"	0.06520613106322534	0.09	0.21828832313828062	0.5276228173645924	0.01563972429039876
48	"[[1][2][3][5][4][2]] [5|(50000.0, 450.0)(50000.0, 450.0)(26600.0, 250.0)(26600.0, 250.0)(46600.0, 400.0)] [2|(256.0, 1.0, 144.0)(128.0, 5.0, 30.0)] [1, 1, 0, 0, 0; 0, 1, 1, 1, 1]"	0.11403943957691862	0.1974	0.08888496177086197	0.3418357930807264	0.015953071923953982
49	"[[5][2][1][3][4][6]] [6|(33300.0, 300.0)(50000.0, 450.0)(46600.0, 400.0)(50000.0, 450.0)(43300.0, 525.0)(50000.0, 450.0)] [2|(224.0, 1.0, 123.0)(128.0, 3.0, 45.0)] [1, 1, 0, 0, 0, 0; 0, 1, 1, 1, 1, 1]"	0.12180945416083819	0.2743	0.07081562119831418	0.38480690686012964	0.016068929312636274
50	"[[1][2][3][2][1][2]] [3|(33300.0, 300.0)(46600.0, 400.0)(13300.0, 150.0)] [2|(128.0, 3.0, 45.0)(128.0, 5.0, 30.0)] [1, 1, 0; 0, 1, 1]"	0.10108685443453118	0.0925	0.18866532494599567	0.40341412707758517	0.01578678446119965
