1	"[[1][2][3][2][3][1]] [3|(50000.0, 450.0)(50000.0, 630.0)(50000.0, 630.0)] [2|(128.0, 1.0, 60.0)(128.0, 1.0, 60.0)] [1, 1, 0; 0, 1, 1]"	0.03400341030696757	0.183	0.12768075548185961	0.2477463020815182	0.0154788241417619
2	"[[1][2][3][1][3][2]] [3|(26600.0, 250.0)(36600.0, 325.0)(6600.0, 100.0)] [2|(128.0, 1.0, 60.0)(128.0, 1.0, 60.0)] [1, 1, 0; 0, 1, 1]"	0.04045442553151126	0.0795	0.33344957512682966	0.5342016052218028	0.015006400621578321
3	"[[2][2][2][2][3][1]] [3|(20000.0, 280.0)(50000.0, 450.0)(6600.0, 100.0)] [2|(128.0, 1.0, 60.0)(224.0, 1.0, 123.0)] [1, 1, 0; 0, 1, 1]"	0.006907658659149491	0.1013	0.18812880618880432	0.41611675387511965	0.01565911970370009
4	"[[3][2][6][1][4][5]] [6|(50000.0, 450.0)(50000.0, 630.0)(50000.0, 630.0)(50000.0, 450.0)(50000.0, 450.0)(50000.0, 630.0)] [2|(192.0, 5.0, 72.0)(128.0, 1.0, 60.0)] [1, 1, 0, 0, 0, 0; 0, 1, 1, 1, 1, 1]"	0.08387852363741394	0.3372	0.06375507214960377	0.27331831898031733	0.015685328012214478
5	"[[4][2][5][1][3][2]] [5|(46600.0, 400.0)(50000.0, 450.0)(36600.0, 325.0)(50000.0, 450.0)(50000.0, 450.0)] [2|(128.0, 5.0, 30.0)(128.0, 5.0, 30.0)] [1, 1, 0, 0, 0; 0, 1, 1, 1, 1]"	0.20341815687812212	0.2135	0.07951620900331875	0.44018012249644756	0.016042221496885275
6	"[[4][2][1][4][3][2]] [4|(50000.0, 450.0)(50000.0, 450.0)(50000.0, 630.0)(50000.0, 450.0)] [2|(192.0, 1.0, 102.0)(192.0, 1.0, 102.0)] [1, 1, 0, 0; 0, 1, 1, 1]"	0.04041761347041596	0.2184	0.09612344708169	0.2772368780502231	0.016360729522049377
7	"[[4][2][1][1][3][2]] [4|(23300.0, 315.0)(50000.0, 630.0)(6600.0, 100.0)(43300.0, 375.0)] [2|(128.0, 1.0, 60.0)(128.0, 5.0, 30.0)] [1, 1, 0, 0; 0, 1, 1, 1]"	0.14249894829780194	0.151	0.17072560375446455	0.4960552696287035	0.015079542873432744
8	"[[2][2][3][1][3][2]] [3|(10000.0, 125.0)(40000.0, 350.0)(6600.0, 100.0)] [2|(128.0, 5.0, 30.0)(128.0, 5.0, 30.0)] [1, 1, 0; 0, 1, 1]"	0.09213530684162187	0.0635	0.39119733898301723	0.6834103544968406	0.0158915737524141
9	"[[1][2][3][1][3][2]] [3|(46600.0, 400.0)(50000.0, 450.0)(36600.0, 325.0)] [2|(192.0, 1.0, 102.0)(128.0, 5.0, 30.0)] [1, 1, 0; 0, 1, 1]"	0.07437501744184344	0.1307	0.13985177799606469	0.3040456157664953	0.01628990920176415
10	"[[4][2][5][1][3][6]] [6|(50000.0, 450.0)(50000.0, 630.0)(33300.0, 300.0)(50000.0, 450.0)(50000.0, 450.0)(50000.0, 630.0)] [2|(128.0, 3.0, 45.0)(128.0, 3.0, 45.0)] [1, 1, 0, 0, 0, 0; 0, 1, 1, 1, 1, 1]"	0.13237408503030018	0.3	0.06589498591638193	0.3856000498335954	0.01620315860095259
11	"[[2][2][3][1][3][2]] [3|(10000.0, 125.0)(40000.0, 350.0)(6600.0, 100.0)] [2|(128.0, 3.0, 45.0)(128.0, 5.0, 30.0)] [1, 1, 0; 0, 1, 1]"	0.07244297257263754	0.065	0.3899391153063001	0.6730812015229192	0.015320282445576427
12	"[[2][2][3][1][1][2]] [3|(13300.0, 150.0)(50000.0, 630.0)(33300.0, 300.0)] [2|(224.0, 3.0, 108.0)(224.0, 1.0, 123.0)] [1, 1, 0; 0, 1, 1]"	0.04556761974965808	0.1311	0.22912419601961623	0.44510596881670494	0.015105498078830631
13	"[[2][2][3][1][1][2]] [3|(23300.0, 315.0)(50000.0, 630.0)(6600.0, 100.0)] [2|(128.0, 1.0, 60.0)(192.0, 3.0, 87.0)] [1, 1, 0; 0, 1, 1]"	0.028578451932916617	0.1192	0.2556591397128563	0.45927009901336613	0.015226886850894303
14	"[[2][2][3][1][3][2]] [3|(10000.0, 125.0)(40000.0, 350.0)(6600.0, 100.0)] [2|(128.0, 1.0, 60.0)(128.0, 1.0, 60.0)] [1, 1, 0; 0, 1, 1]"	0.018438244555136634	0.0695	0.3929568026358716	0.643458013026559	0.015795687057714992
15	"[[2][2][2][1][3][2]] [3|(13300.0, 150.0)(50000.0, 630.0)(50000.0, 630.0)] [2|(128.0, 1.0, 60.0)(256.0, 1.0, 144.0)] [1, 1, 0; 0, 1, 1]"	0.013559004081942144	0.1614	0.20201994055600994	0.4042125212739744	0.015196631162660618
16	"[[4][2][5][1][3][2]] [5|(50000.0, 450.0)(50000.0, 450.0)(50000.0, 630.0)(50000.0, 450.0)(50000.0, 450.0)] [2|(128.0, 3.0, 45.0)(128.0, 3.0, 45.0)] [1, 1, 0, 0, 0; 0, 1, 1, 1, 1]"	0.1207284366048853	0.252	0.07683611562369998	0.34002860881299785	0.015879913293302503
17	"[[2][2][3][1][1][4]] [4|(46600.0, 400.0)(50000.0, 630.0)(33300.0, 300.0)(43300.0, 375.0)] [2|(128.0, 1.0, 60.0)(256.0, 1.0, 144.0)] [1, 1, 0, 0; 0, 1, 1, 1]"	0.02201148987977913	0.1909	0.10364343949869975	0.321951751132012	0.01563194537545201
18	"[[3][2][6][1][4][5]] [6|(50000.0, 450.0)(50000.0, 630.0)(50000.0, 630.0)(50000.0, 450.0)(50000.0, 450.0)(50000.0, 630.0)] [2|(192.0, 5.0, 72.0)(256.0, 1.0, 144.0)] [1, 1, 0, 0, 0, 0; 0, 1, 1, 1, 1, 1]"	0.08387380281617668	0.3456	0.06392282024314443	0.27269207799517436	0.015945205474492085
19	"[[2][2][3][1][3][2]] [3|(26600.0, 250.0)(40000.0, 350.0)(6600.0, 100.0)] [2|(128.0, 1.0, 60.0)(128.0, 5.0, 30.0)] [1, 1, 0; 0, 1, 1]"	0.05219472526460873	0.079	0.3074127325229566	0.6002481936999572	0.015432770680521698
20	"[[2][2][2][1][3][2]] [3|(23300.0, 315.0)(50000.0, 630.0)(16600.0, 175.0)] [2|(128.0, 1.0, 60.0)(128.0, 3.0, 45.0)] [1, 1, 0; 0, 1, 1]"	0.02035884147584794	0.1225	0.17389392208346077	0.39295365816030015	0.015271651235486794
21	"[[3][2][6][1][4][5]] [6|(46600.0, 400.0)(46600.0, 400.0)(33300.0, 300.0)(50000.0, 450.0)(43300.0, 525.0)(50000.0, 630.0)] [2|(128.0, 3.0, 45.0)(128.0, 1.0, 60.0)] [1, 1, 0, 0, 0, 0; 0, 1, 1, 1, 1, 1]"	0.06387310397868548	0.281	0.0744552792504324	0.2949584254654579	0.015856428072377526
22	"[[4][2][2][1][3][2]] [4|(50000.0, 450.0)(43300.0, 525.0)(16600.0, 175.0)(50000.0, 450.0)] [2|(128.0, 5.0, 30.0)(256.0, 1.0, 144.0)] [1, 1, 0, 0; 0, 1, 1, 1]"	0.0754640438844173	0.1774	0.11482088382856687	0.3582482750761099	0.015153906030937114
23	"[[2][2][3][1][1][2]] [3|(13300.0, 150.0)(46600.0, 400.0)(33300.0, 300.0)] [2|(128.0, 3.0, 45.0)(128.0, 5.0, 30.0)] [1, 1, 0; 0, 1, 1]"	0.06535650859850756	0.0925	0.23444669013074163	0.4770058768466268	0.01563004945440688
24	"[[4][2][2][1][3][2]] [4|(50000.0, 450.0)(50000.0, 450.0)(6600.0, 100.0)(43300.0, 375.0)] [2|(128.0, 5.0, 30.0)(128.0, 3.0, 45.0)] [1, 1, 0, 0; 0, 1, 1, 1]"	0.126278747144428	0.145	0.13553467884483347	0.40848934277133	0.01623200761974696
25	"[[1][2][2][1][3][2]] [3|(50000.0, 450.0)(46600.0, 400.0)(16600.0, 175.0)] [2|(128.0, 1.0, 60.0)(128.0, 5.0, 30.0)] [1, 1, 0; 0, 1, 1]"	0.04934150522869758	0.1115	0.14772032842908633	0.3304495980878315	0.015876599201964346
26	"[[2][2][3][1][3][2]] [3|(26600.0, 250.0)(46600.0, 400.0)(16600.0, 175.0)] [2|(128.0, 5.0, 30.0)(128.0, 5.0, 30.0)] [1, 1, 0; 0, 1, 1]"	0.092826494347172	0.0885	0.19925018752550003	0.4627790333377615	0.015528721742764547
27	"[[2][2][3][1][3][2]] [3|(13300.0, 150.0)(40000.0, 350.0)(6600.0, 100.0)] [2|(128.0, 5.0, 30.0)(128.0, 5.0, 30.0)] [1, 1, 0; 0, 1, 1]"	0.09240692271857995	0.066	0.35844044607897213	0.65791816297181	0.016161859348016457
28	"[[2][2][3][1][3][2]] [3|(23300.0, 315.0)(40000.0, 350.0)(16600.0, 175.0)] [2|(128.0, 3.0, 45.0)(128.0, 5.0, 30.0)] [1, 1, 0; 0, 1, 1]"	0.07231055248165741	0.0915	0.22090688494823627	0.5079303480365631	0.01569191734293445
29	"[[3][2][6][1][4][5]] [6|(50000.0, 450.0)(50000.0, 450.0)(50000.0, 630.0)(43300.0, 375.0)(43300.0, 525.0)(50000.0, 630.0)] [2|(192.0, 5.0, 72.0)(128.0, 3.0, 45.0)] [1, 1, 0, 0, 0, 0; 0, 1, 1, 1, 1, 1]"	0.15173747800827952	0.3177	0.06517055215400296	0.39600644907005844	0.01574800548164495
30	"[[4][2][5][1][3][2]] [5|(50000.0, 450.0)(50000.0, 450.0)(16600.0, 175.0)(50000.0, 450.0)(50000.0, 450.0)] [2|(128.0, 1.0, 60.0)(128.0, 5.0, 30.0)] [1, 1, 0, 0, 0; 0, 1, 1, 1, 1]"	0.162128234561917	0.2065	0.0858842183431629	0.4301411917869279	0.016095483153016767
31	"[[4][2][5][1][3][2]] [5|(50000.0, 450.0)(50000.0, 450.0)(50000.0, 630.0)(50000.0, 450.0)(50000.0, 450.0)] [2|(128.0, 3.0, 45.0)(256.0, 1.0, 144.0)] [1, 1, 0, 0, 0; 0, 1, 1, 1, 1]"	0.0605059745701325	0.2619	0.07685791448710179	0.28466877840420535	0.015713906270825202
32	"[[2][2][2][1][3][2]] [3|(10000.0, 125.0)(46600.0, 400.0)(16600.0, 175.0)] [2|(128.0, 1.0, 60.0)(128.0, 5.0, 30.0)] [1, 1, 0; 0, 1, 1]"	0.027300491049240844	0.079	0.2568028793005434	0.47770212558978986	0.015825403727973163
33	"[[2][2][3][1][3][2]] [3|(13300.0, 150.0)(46600.0, 400.0)(16600.0, 175.0)] [2|(128.0, 5.0, 30.0)(128.0, 3.0, 45.0)] [1, 1, 0; 0, 1, 1]"	0.07589435911137625	0.08	0.24945305541975382	0.48876697443375944	0.015635071088039555
34	"[[1][2][2][1][3][2]] [3|(50000.0, 450.0)(50000.0, 450.0)(16600.0, 175.0)] [2|(128.0, 3.0, 45.0)(128.0, 1.0, 60.0)] [1, 1, 0; 0, 1, 1]"	0.09928702375483377	0.118	0.14326271375618074	0.345732876306601	0.01573253919485869
35	"[[4][2][1][4][3][2]] [4|(10000.0, 125.0)(46600.0, 400.0)(6600.0, 100.0)(50000.0, 450.0)] [2|(128.0, 3.0, 45.0)(128.0, 5.0, 30.0)] [1, 1, 0, 0; 0, 1, 1, 1]"	0.1927548092713265	0.115	0.17530930116333532	0.5280234727636097	0.015678794570897932
36	"[[2][2][2][1][3][2]] [3|(50000.0, 450.0)(46600.0, 400.0)(33300.0, 300.0)] [2|(128.0, 1.0, 60.0)(128.0, 1.0, 60.0)] [1, 1, 0; 0, 1, 1]"	0.013403738379154925	0.127	0.13873867273322096	0.3755139411598303	0.01578512808704361
37	"[[2][2][2][1][3][2]] [3|(26600.0, 250.0)(46600.0, 400.0)(33300.0, 300.0)] [2|(128.0, 3.0, 45.0)(128.0, 1.0, 60.0)] [1, 1, 0; 0, 1, 1]"	0.03322173468188067	0.1055	0.16171916963379188	0.4024693881022613	0.01592330815940893
38	"[[3][2][6][1][4][5]] [6|(50000.0, 450.0)(50000.0, 630.0)(50000.0, 630.0)(50000.0, 450.0)(50000.0, 450.0)(50000.0, 450.0)] [2|(128.0, 1.0, 60.0)(256.0, 1.0, 144.0)] [1, 1, 0, 0, 0, 0; 0, 1, 1, 1, 1, 1]"	0.04384280685479961	0.3264	0.06410195208909943	0.2534087685313143	0.015800327201839284
39	"[[2][2][3][1][3][2]] [3|(10000.0, 125.0)(50000.0, 630.0)(16600.0, 175.0)] [2|(128.0, 1.0, 60.0)(128.0, 3.0, 45.0)] [1, 1, 0; 0, 1, 1]"	0.03543275251202255	0.1035	0.27677977411894766	0.4723825345262779	0.01555175052506621
40	"[[2][2][2][1][3][2]] [3|(10000.0, 125.0)(46600.0, 400.0)(6600.0, 100.0)] [2|(128.0, 3.0, 45.0)(128.0, 1.0, 60.0)] [1, 1, 0; 0, 1, 1]"	0.033542822163603686	0.073	0.2902371817288208	0.5133292922556012	0.015756438912755147
41	"[[1][2][3][1][3][2]] [3|(46600.0, 400.0)(46600.0, 400.0)(16600.0, 175.0)] [2|(128.0, 5.0, 30.0)(224.0, 1.0, 123.0)] [1, 1, 0; 0, 1, 1]"	0.16822810640311509	0.1128	0.177355369765366	0.4319343984680519	0.015610608393336218
42	"[[4][2][2][1][3][2]] [4|(50000.0, 450.0)(46600.0, 400.0)(33300.0, 300.0)(50000.0, 450.0)] [2|(128.0, 3.0, 45.0)(160.0, 5.0, 51.0)] [1, 1, 0, 0; 0, 1, 1, 1]"	0.15728347730216802	0.1696	0.10234056406991336	0.4149799377814306	0.01585045728277856
43	"[[2][2][3][1][3][2]] [3|(13300.0, 150.0)(46600.0, 400.0)(6600.0, 100.0)] [2|(128.0, 1.0, 60.0)(128.0, 5.0, 30.0)] [1, 1, 0; 0, 1, 1]"	0.05247953517222133	0.074	0.3460350304707389	0.5929601314430304	0.01549137521285464
44	"[[2][2][3][1][3][2]] [3|(46600.0, 400.0)(46600.0, 400.0)(6600.0, 100.0)] [2|(128.0, 5.0, 30.0)(128.0, 1.0, 60.0)] [1, 1, 0; 0, 1, 1]"	0.05846331596509266	0.099	0.27356803879499	0.5353192704893981	0.015454536088860313
45	"[[2][2][3][1][1][2]] [3|(50000.0, 450.0)(43300.0, 525.0)(6600.0, 100.0)] [2|(128.0, 5.0, 30.0)(192.0, 3.0, 87.0)] [1, 1, 0; 0, 1, 1]"	0.08234079268459929	0.1192	0.22827221821884347	0.49948916590731296	0.015507858398168468
46	"[[4][2][2][1][3][2]] [4|(46600.0, 400.0)(50000.0, 450.0)(16600.0, 175.0)(40000.0, 350.0)] [2|(128.0, 1.0, 60.0)(128.0, 3.0, 45.0)] [1, 1, 0, 0; 0, 1, 1, 1]"	0.08636476102205083	0.148	0.11410652500777407	0.35544167043824915	0.016122936067401887
47	"[[2][2][3][1][3][2]] [3|(10000.0, 125.0)(43300.0, 525.0)(6600.0, 100.0)] [2|(128.0, 1.0, 60.0)(128.0, 1.0, 60.0)] [1, 1, 0; 0, 1, 1]"	0.018516935057794396	0.087	0.38312280807781596	0.6146608544280008	0.015290376810145407
48	"[[4][2][2][1][3][2]] [4|(13300.0, 150.0)(50000.0, 630.0)(33300.0, 300.0)(50000.0, 450.0)] [2|(128.0, 1.0, 60.0)(128.0, 5.0, 30.0)] [1, 1, 0, 0; 0, 1, 1, 1]"	0.13729652817558893	0.162	0.15412521393959105	0.45285670920421794	0.015290951907051181
49	"[[1][2][2][1][3][2]] [3|(50000.0, 450.0)(46600.0, 400.0)(33300.0, 300.0)] [2|(128.0, 3.0, 45.0)(128.0, 3.0, 45.0)] [1, 1, 0; 0, 1, 1]"	0.10672988501551221	0.124	0.13618689141183596	0.35265832130027835	0.015489329271243246
50	"[[2][2][3][1][1][2]] [3|(13300.0, 150.0)(43300.0, 525.0)(6600.0, 100.0)] [2|(128.0, 1.0, 60.0)(128.0, 5.0, 30.0)] [1, 1, 0; 0, 1, 1]"	0.0382018714584824	0.0865	0.32167572116884674	0.5592938291470084	0.015533716718368814
