0	241	"[6, 3, 5, 2, 1, 4] [6|(50000.0, 630.0)(50000.0, 450.0)(50000.0, 450.0)(50000.0, 450.0)(50000.0, 630.0)(50000.0, 630.0)] [4|(128.0, 3.0, 45.0)(128.0, 5.0, 30.0)(128.0, 5.0, 30.0)(128.0, 5.0, 30.0)] [1, 1, 1, 0, 1, 1; 1, 1, 1, 1, 1, 1; 1, 1, 0, 0, 1, 1; 0, 1, 1, 1, 1, 0] [0, 0, 0, 0; 0, 0, 0, 0; 0, 0, 0, 0; 0, 0, 0, 0]"	0.06948606184431544	0.3375	0.06374893998981758	0.36227717242699886	0.015887539254396704
0	242	"[3, 3, 4, 3, 1, 2] [4|(50000.0, 630.0)(50000.0, 450.0)(50000.0, 450.0)(10000.0, 125.0)] [6|(128.0, 1.0, 60.0)(160.0, 1.0, 81.0)(256.0, 1.0, 144.0)(128.0, 3.0, 45.0)(192.0, 5.0, 72.0)(256.0, 1.0, 144.0)] [0, 1, 1, 1; 1, 1, 0, 0; 1, 0, 1, 0; 1, 0, 1, 1; 1, 1, 0, 1; 1, 1, 0, 0] [0, 0, 0, 0, 0, 0; 0, 0, 0, 0, 0, 0; 0, 0, 0, 0, 0, 0; 0, 0, 0, 0, 0, 0; 0, 0, 0, 0, 0, 0; 0, 0, 0, 0, 0, 0]"	0.003960346914848874	0.2201	0.13585100985967746	0.3563786855572978	0.015810946889795986
0	243	"[2, 3, 4, 3, 1, 2] [4|(50000.0, 630.0)(50000.0, 450.0)(50000.0, 450.0)(50000.0, 450.0)] [4|(128.0, 1.0, 60.0)(256.0, 1.0, 144.0)(128.0, 5.0, 30.0)(128.0, 5.0, 30.0)] [1, 1, 1, 1; 0, 0, 1, 1; 0, 0, 1, 1; 0, 1, 1, 0] [0, 0, 0, 0; 0, 0, 0, 0; 0, 0, 0, 0; 0, 0, 0, 0]"	0.017003180265871703	0.2244	0.09582414181763269	0.24818900791827436	0.015701441997376372
0	244	"[3, 3, 4, 2, 1, 3] [4|(6600.0, 100.0)(10000.0, 125.0)(40000.0, 350.0)(10000.0, 125.0)] [4|(128.0, 1.0, 60.0)(128.0, 5.0, 30.0)(128.0, 5.0, 30.0)(128.0, 5.0, 30.0)] [1, 1, 1, 1; 0, 0, 1, 1; 0, 0, 1, 1; 0, 1, 1, 0] [0, 0, 0, 0; 0, 0, 0, 0; 0, 0, 0, 0; 0, 0, 0, 0]"	0.009203887416890249	0.085	0.26908036300447213	0.5911351099987511	0.015346544289234248
0	245	"[2, 3, 4, 4, 1, 3] [4|(43300.0, 375.0)(46600.0, 400.0)(50000.0, 450.0)(50000.0, 450.0)] [4|(128.0, 5.0, 30.0)(128.0, 3.0, 45.0)(128.0, 5.0, 30.0)(128.0, 5.0, 30.0)] [1, 1, 1, 0; 1, 1, 1, 1; 1, 1, 0, 0; 0, 1, 1, 1] [0, 0, 0, 0; 0, 0, 0, 0; 0, 0, 0, 0; 0, 0, 0, 0]"	0.08616771627253693	0.181	0.09851537080110764	0.4107498060097493	0.015216771820340078
0	246	"[6, 3, 5, 4, 1, 2] [6|(50000.0, 630.0)(50000.0, 450.0)(50000.0, 450.0)(50000.0, 450.0)(50000.0, 630.0)(50000.0, 630.0)] [8|(224.0, 1.0, 123.0)(256.0, 1.0, 144.0)(160.0, 3.0, 66.0)(128.0, 5.0, 30.0)(256.0, 1.0, 144.0)(256.0, 1.0, 144.0)(192.0, 1.0, 102.0)(224.0, 5.0, 93.0)] [1, 1, 1, 0, 0, 1; 0, 1, 1, 1, 1, 0; 0, 1, 1, 1, 1, 0; 0, 1, 1, 1, 1, 0; 1, 1, 0, 1, 0, 1; 0, 1, 1, 1, 1, 0; 0, 0, 1, 1, 1, 1; 1, 1, 0, 1, 0, 0] [0, 0, 0, 0, 0, 0, 0, 0; 0, 0, 0, 0, 0, 0, 0, 0; 0, 0, 0, 0, 0, 0, 0, 0; 0, 0, 0, 0, 0, 0, 0, 0; 0, 0, 0, 0, 0, 0, 0, 0; 0, 0, 0, 0, 0, 0, 0, 0; 0, 0, 0, 0, 0, 0, 0, 0; 0, 0, 0, 0, 0, 0, 0, 0]"	0.01097846195915949	0.4086	0.06392178959840371	0.25241886613210707	0.015715634944637343
0	247	"[3, 3, 4, 2, 1, 3] [4|(6600.0, 100.0)(10000.0, 125.0)(50000.0, 450.0)(10000.0, 125.0)] [4|(128.0, 3.0, 45.0)(128.0, 5.0, 30.0)(128.0, 5.0, 30.0)(128.0, 5.0, 30.0)] [1, 1, 1, 1; 0, 0, 1, 1; 0, 0, 1, 1; 0, 1, 1, 0] [0, 0, 0, 0; 0, 0, 0, 0; 0, 0, 0, 0; 0, 0, 0, 0]"	0.027677470347309562	0.0935	0.2528552574802903	0.5393853204412078	0.014945624452784126
0	248	"[3, 3, 4, 2, 1, 3] [4|(6600.0, 100.0)(10000.0, 125.0)(40000.0, 350.0)(10000.0, 125.0)] [4|(128.0, 3.0, 45.0)(128.0, 5.0, 30.0)(128.0, 5.0, 30.0)(128.0, 5.0, 30.0)] [1, 1, 1, 1; 0, 0, 1, 1; 0, 0, 1, 1; 0, 1, 1, 0] [0, 0, 0, 0; 0, 0, 0, 0; 0, 0, 0, 0; 0, 0, 0, 0]"	0.027534375958539525	0.0835	0.2679076597424234	0.6105328892908986	0.015538025471661067
0	249	"[6, 3, 5, 4, 1, 2] [6|(50000.0, 630.0)(50000.0, 450.0)(50000.0, 450.0)(50000.0, 450.0)(50000.0, 450.0)(50000.0, 630.0)] [4|(128.0, 3.0, 45.0)(256.0, 1.0, 144.0)(128.0, 5.0, 30.0)(128.0, 5.0, 30.0)] [1, 1, 1, 0, 1, 1; 1, 1, 1, 1, 1, 1; 1, 1, 0, 0, 1, 1; 0, 1, 1, 1, 1, 0] [0, 0, 0, 0; 0, 0, 0, 0; 0, 0, 0, 0; 0, 0, 0, 0]"	0.0559468308086617	0.3309	0.06398649013025348	0.370256997888013	0.01608919163877218
0	250	"[3, 3, 5, 4, 1, 2] [5|(50000.0, 630.0)(50000.0, 450.0)(50000.0, 450.0)(50000.0, 450.0)(50000.0, 450.0)] [4|(128.0, 1.0, 60.0)(128.0, 5.0, 30.0)(128.0, 5.0, 30.0)(128.0, 5.0, 30.0)] [1, 1, 1, 1, 1; 0, 0, 1, 1, 0; 0, 0, 1, 1, 1; 0, 1, 1, 0, 0] [0, 0, 0, 0; 0, 0, 0, 0; 0, 0, 0, 0; 0, 0, 0, 0]"	0.010999275971623288	0.258	0.07671694782805909	0.3100898619427913	0.016271547759427962
0	251	"[2, 2, 4, 4, 1, 3] [4|(13300.0, 150.0)(50000.0, 450.0)(50000.0, 450.0)(50000.0, 450.0)] [4|(128.0, 3.0, 45.0)(128.0, 5.0, 30.0)(128.0, 5.0, 30.0)(128.0, 5.0, 30.0)] [1, 1, 1, 0; 1, 1, 1, 1; 1, 1, 0, 0; 0, 1, 1, 1] [0, 0, 0, 0; 0, 0, 0, 0; 0, 0, 0, 0; 0, 0, 0, 0]"	0.04799568262845575	0.1635	0.11146168660108252	0.391836592338634	0.01612379457096991
0	252	"[3, 3, 4, 2, 1, 2] [4|(50000.0, 630.0)(50000.0, 450.0)(50000.0, 450.0)(10000.0, 125.0)] [4|(128.0, 1.0, 60.0)(128.0, 5.0, 30.0)(128.0, 5.0, 30.0)(128.0, 5.0, 30.0)] [1, 1, 1, 1; 0, 0, 1, 1; 0, 0, 1, 1; 0, 1, 1, 0] [0, 0, 0, 0; 0, 0, 0, 0; 0, 0, 0, 0; 0, 0, 0, 0]"	0.010998145647854052	0.1805	0.1357018331126486	0.35994319426844346	0.015094689723988215
0	253	"[2, 3, 5, 4, 1, 3] [5|(13300.0, 150.0)(50000.0, 450.0)(50000.0, 450.0)(50000.0, 450.0)(50000.0, 450.0)] [4|(128.0, 5.0, 30.0)(128.0, 5.0, 30.0)(128.0, 5.0, 30.0)(128.0, 5.0, 30.0)] [1, 1, 1, 0, 1; 1, 1, 1, 1, 1; 1, 1, 0, 0, 1; 0, 1, 1, 1, 1] [0, 0, 0, 0; 0, 0, 0, 0; 0, 0, 0, 0; 0, 0, 0, 0]"	0.10092304466597202	0.207	0.08932057994078992	0.456950904181462	0.015479559483880684
0	254	"[3, 3, 4, 2, 1, 3] [4|(6600.0, 100.0)(10000.0, 125.0)(40000.0, 350.0)(10000.0, 125.0)] [4|(128.0, 3.0, 45.0)(128.0, 5.0, 30.0)(128.0, 5.0, 30.0)(128.0, 5.0, 30.0)] [1, 1, 1, 1; 0, 0, 1, 1; 0, 0, 1, 1; 0, 1, 1, 0] [0, 0, 0, 0; 0, 0, 0, 0; 0, 0, 0, 0; 0, 0, 0, 0]"	0.02768913092563028	0.0835	0.26745170199766344	0.6106905215406372	0.015494415102759677
0	255	"[2, 3, 4, 2, 1, 3] [4|(13300.0, 150.0)(50000.0, 450.0)(50000.0, 450.0)(40000.0, 350.0)] [4|(128.0, 5.0, 30.0)(128.0, 5.0, 30.0)(128.0, 5.0, 30.0)(128.0, 5.0, 30.0)] [1, 1, 1, 1; 0, 0, 1, 1; 0, 0, 1, 1; 0, 1, 1, 0] [0, 0, 0, 0; 0, 0, 0, 0; 0, 0, 0, 0; 0, 0, 0, 0]"	0.10163313103787061	0.152	0.11398116040899207	0.47282898588063593	0.015804432853461805
0	256	"[3, 3, 4, 2, 1, 3] [4|(13300.0, 150.0)(10000.0, 125.0)(40000.0, 350.0)(10000.0, 125.0)] [4|(128.0, 1.0, 60.0)(128.0, 5.0, 30.0)(128.0, 5.0, 30.0)(128.0, 5.0, 30.0)] [1, 1, 1, 1; 0, 0, 1, 1; 0, 0, 1, 1; 0, 1, 1, 0] [0, 0, 0, 0; 0, 0, 0, 0; 0, 0, 0, 0; 0, 0, 0, 0]"	0.009248842904950694	0.09	0.24704585997241785	0.5584887537573321	0.015463451497829104
0	257	"[3, 3, 4, 2, 1, 3] [4|(13300.0, 150.0)(10000.0, 125.0)(50000.0, 450.0)(50000.0, 450.0)] [4|(128.0, 5.0, 30.0)(128.0, 5.0, 30.0)(128.0, 5.0, 30.0)(128.0, 5.0, 30.0)] [1, 1, 1, 1; 0, 0, 1, 1; 0, 0, 1, 1; 0, 1, 1, 0] [0, 0, 0, 0; 0, 0, 0, 0; 0, 0, 0, 0; 0, 0, 0, 0]"	0.046501772120570405	0.1295	0.19189324562283921	0.48696333144697806	0.01528431898671137
0	258	"[6, 3, 5, 4, 1, 2] [6|(50000.0, 630.0)(50000.0, 450.0)(50000.0, 450.0)(50000.0, 450.0)(33300.0, 300.0)(50000.0, 630.0)] [8|(128.0, 1.0, 60.0)(256.0, 1.0, 144.0)(128.0, 5.0, 30.0)(128.0, 5.0, 30.0)(256.0, 1.0, 144.0)(192.0, 5.0, 72.0)(192.0, 1.0, 102.0)(224.0, 5.0, 93.0)] [1, 1, 1, 0, 0, 1; 0, 1, 1, 1, 1, 0; 0, 1, 1, 1, 1, 0; 0, 1, 1, 1, 1, 0; 1, 1, 0, 1, 0, 1; 0, 1, 1, 1, 1, 0; 0, 0, 1, 1, 1, 1; 1, 1, 0, 1, 0, 0] [0, 0, 0, 0, 0, 0, 0, 0; 0, 0, 0, 0, 0, 0, 0, 0; 0, 0, 0, 0, 0, 0, 0, 0; 0, 0, 0, 0, 0, 0, 0, 0; 0, 0, 0, 0, 0, 0, 0, 0; 0, 0, 0, 0, 0, 0, 0, 0; 0, 0, 0, 0, 0, 0, 0, 0; 0, 0, 0, 0, 0, 0, 0, 0]"	0.010988097214172408	0.3585	0.06743302302270676	0.2602339151258304	0.015600209405249935
0	259	"[2, 3, 4, 4, 1, 2] [4|(13300.0, 150.0)(50000.0, 450.0)(50000.0, 450.0)(50000.0, 450.0)] [4|(128.0, 1.0, 60.0)(128.0, 5.0, 30.0)(128.0, 5.0, 30.0)(128.0, 5.0, 30.0)] [1, 1, 1, 0; 1, 1, 1, 1; 1, 1, 0, 0; 0, 1, 1, 1] [0, 0, 0, 0; 0, 0, 0, 0; 0, 0, 0, 0; 0, 0, 0, 0]"	0.05201194670047342	0.165	0.11141711935603027	0.3129040816103075	0.01544712291405513
0	260	"[3, 3, 4, 2, 1, 3] [4|(6600.0, 100.0)(30000.0, 275.0)(40000.0, 350.0)(10000.0, 125.0)] [4|(128.0, 5.0, 30.0)(128.0, 5.0, 30.0)(128.0, 5.0, 30.0)(128.0, 5.0, 30.0)] [1, 1, 1, 1; 0, 0, 1, 1; 0, 0, 1, 1; 0, 1, 1, 0] [0, 0, 0, 0; 0, 0, 0, 0; 0, 0, 0, 0; 0, 0, 0, 0]"	0.04613983364244367	0.097	0.20118168773733458	0.569327004312869	0.0158507882244364
