0	641	"[2, 2, 2, 2, 3, 1] [3|(50000.0, 450.0)(50000.0, 630.0)(10000.0, 125.0)] [2|(224.0, 1.0, 123.0)(128.0, 1.0, 60.0)] [1, 1, 0; 0, 1, 1] [0, 0; 0, 0]"	0.006895025389400651	0.1388	0.15802824645221702	0.35550757788774345	0.01616554710154441
0	642	"[2, 2, 3, 1, 3, 2] [3|(10000.0, 125.0)(43300.0, 375.0)(43300.0, 375.0)] [2|(128.0, 5.0, 30.0)(160.0, 5.0, 51.0)] [1, 1, 0; 0, 1, 1] [0, 0; 0, 0]"	0.09249925366522688	0.0956	0.25055620833330616	0.5057690887067857	0.014906825779184753
0	643	"[1, 2, 4, 6, 3, 5] [6|(50000.0, 450.0)(50000.0, 450.0)(50000.0, 450.0)(50000.0, 450.0)(50000.0, 450.0)(50000.0, 630.0)] [2|(128.0, 1.0, 60.0)(224.0, 1.0, 123.0)] [1, 1, 0, 0, 0, 0; 0, 1, 1, 1, 1, 1] [0, 0; 0, 0]"	0.04399118108840998	0.3063	0.06378125481588298	0.25140441318197454	0.015398135304264038
0	644	"[2, 2, 3, 1, 3, 2] [3|(10000.0, 125.0)(40000.0, 350.0)(6600.0, 100.0)] [2|(128.0, 5.0, 30.0)(128.0, 3.0, 45.0)] [1, 1, 0; 0, 1, 1] [0, 0; 0, 0]"	0.0750063505273197	0.065	0.39036722281274594	0.6714968012335213	0.01576569998268092
0	645	"[1, 2, 3, 1, 3, 2] [3|(46600.0, 400.0)(50000.0, 450.0)(10000.0, 125.0)] [2|(128.0, 3.0, 45.0)(160.0, 5.0, 51.0)] [1, 1, 0; 0, 1, 1] [0, 0; 0, 0]"	0.1387384426004662	0.1071	0.21593123907735703	0.43565620049220377	0.015014399845062268
0	646	"[2, 2, 3, 1, 3, 2] [3|(10000.0, 125.0)(40000.0, 350.0)(6600.0, 100.0)] [2|(128.0, 5.0, 30.0)(160.0, 5.0, 51.0)] [1, 1, 0; 0, 1, 1] [0, 0; 0, 0]"	0.09243640848479923	0.0656	0.39118363392460426	0.6844384059787354	0.015469470615667355
0	647	"[1, 2, 4, 6, 3, 5] [6|(50000.0, 450.0)(50000.0, 630.0)(50000.0, 450.0)(50000.0, 450.0)(50000.0, 450.0)(50000.0, 630.0)] [2|(128.0, 1.0, 60.0)(128.0, 1.0, 60.0)] [1, 1, 0, 0, 0, 0; 0, 1, 1, 1, 1, 1] [0, 0; 0, 0]"	0.043919256000085366	0.318	0.06390414623152252	0.25136059273065114	0.016259181699911165
0	648	"[1, 2, 4, 2, 3, 5] [5|(50000.0, 450.0)(50000.0, 450.0)(50000.0, 450.0)(50000.0, 450.0)(50000.0, 450.0)] [2|(128.0, 1.0, 60.0)(128.0, 1.0, 60.0)] [1, 1, 0, 0, 0; 0, 1, 1, 1, 1] [0, 0; 0, 0]"	0.03395785466741313	0.237	0.07684172867485733	0.24757240249596263	0.015549960332611194
0	649	"[1, 2, 3, 1, 3, 2] [3|(36600.0, 325.0)(46600.0, 400.0)(6600.0, 100.0)] [2|(128.0, 3.0, 45.0)(160.0, 5.0, 51.0)] [1, 1, 0; 0, 1, 1] [0, 0; 0, 0]"	0.138219737305317	0.0921	0.2879221015616898	0.5280521836487339	0.01505820655630059
0	650	"[2, 2, 3, 1, 3, 2] [3|(10000.0, 125.0)(46600.0, 400.0)(6600.0, 100.0)] [2|(128.0, 5.0, 30.0)(160.0, 5.0, 51.0)] [1, 1, 0; 0, 1, 1] [0, 0; 0, 0]"	0.0921143303648379	0.0706	0.37560665423702383	0.6324642498240953	0.015316901478349439
0	651	"[2, 2, 3, 1, 3, 2] [3|(10000.0, 125.0)(50000.0, 450.0)(10000.0, 125.0)] [2|(128.0, 3.0, 45.0)(160.0, 5.0, 51.0)] [1, 1, 0; 0, 1, 1] [0, 0; 0, 0]"	0.07248794560027137	0.0796	0.3176949773918119	0.5427805315103646	0.015165207144316089
0	652	"[2, 2, 3, 1, 3, 2] [3|(10000.0, 125.0)(40000.0, 350.0)(10000.0, 125.0)] [2|(128.0, 1.0, 60.0)(128.0, 3.0, 45.0)] [1, 1, 0; 0, 1, 1] [0, 0; 0, 0]"	0.035405089534351994	0.0705	0.3389949463587896	0.5912253479202072	0.015588669530005459
0	653	"[2, 2, 2, 1, 3, 2] [3|(10000.0, 125.0)(46600.0, 400.0)(6600.0, 100.0)] [2|(128.0, 5.0, 30.0)(128.0, 3.0, 45.0)] [1, 1, 0; 0, 1, 1] [0, 0; 0, 0]"	0.06028963049132337	0.07	0.29168565905861266	0.5300774102268859	0.015443909936018433
0	654	"[1, 2, 1, 1, 3, 2] [3|(50000.0, 450.0)(46600.0, 400.0)(6600.0, 100.0)] [2|(128.0, 5.0, 30.0)(160.0, 5.0, 51.0)] [1, 1, 0; 0, 1, 1] [0, 0; 0, 0]"	0.2023643022032688	0.1031	0.18063270866158412	0.47111589295233647	0.015296586275984098
0	655	"[2, 2, 3, 1, 3, 2] [3|(10000.0, 125.0)(46600.0, 400.0)(6600.0, 100.0)] [2|(128.0, 1.0, 60.0)(128.0, 3.0, 45.0)] [1, 1, 0; 0, 1, 1] [0, 0; 0, 0]"	0.03543311554946469	0.073	0.3764612601005668	0.6029674426887172	0.015126512482796253
0	656	"[1, 2, 4, 6, 3, 5] [6|(50000.0, 450.0)(50000.0, 450.0)(50000.0, 450.0)(50000.0, 450.0)(40000.0, 350.0)(50000.0, 630.0)] [2|(128.0, 5.0, 30.0)(128.0, 1.0, 60.0)] [1, 1, 0, 0, 0, 0; 0, 1, 1, 1, 1, 1] [0, 0; 0, 0]"	0.1318884076955222	0.287	0.06492143951042766	0.3694505646902487	0.015856618376017637
0	657	"[1, 2, 4, 6, 3, 5] [6|(50000.0, 450.0)(50000.0, 630.0)(50000.0, 450.0)(50000.0, 450.0)(50000.0, 450.0)(50000.0, 630.0)] [2|(128.0, 1.0, 60.0)(128.0, 1.0, 60.0)] [1, 1, 0, 0, 0, 0; 0, 1, 1, 1, 1, 1] [0, 0; 0, 0]"	0.043981393368668714	0.318	0.0640521418557476	0.2528364955056701	0.016018287792305817
0	658	"[2, 2, 3, 1, 3, 2] [3|(50000.0, 450.0)(46600.0, 400.0)(6600.0, 100.0)] [2|(128.0, 1.0, 60.0)(128.0, 1.0, 60.0)] [1, 1, 0; 0, 1, 1] [0, 0; 0, 0]"	0.01855996665549347	0.107	0.27110499322248893	0.5132293832895178	0.015326949953100275
0	659	"[2, 2, 3, 1, 3, 2] [3|(10000.0, 125.0)(43300.0, 375.0)(10000.0, 125.0)] [2|(128.0, 5.0, 30.0)(128.0, 1.0, 60.0)] [1, 1, 0; 0, 1, 1] [0, 0; 0, 0]"	0.058295405898963586	0.0715	0.3297893878536819	0.5727068394408379	0.015781667110557656
0	660	"[2, 2, 3, 1, 3, 2] [3|(10000.0, 125.0)(40000.0, 350.0)(6600.0, 100.0)] [2|(128.0, 3.0, 45.0)(128.0, 3.0, 45.0)] [1, 1, 0; 0, 1, 1] [0, 0; 0, 0]"	0.055307727766949255	0.0665	0.3917558427778653	0.6628551111234349	0.015448960147086447
