0	681	"[2, 2, 3, 4, 1, 2] [4|(50000.0, 450.0)(50000.0, 450.0)(16600.0, 175.0)(36600.0, 325.0)] [2|(224.0, 1.0, 123.0)(128.0, 5.0, 30.0)] [1, 1, 0, 0; 0, 1, 1, 1] [0, 0; 0, 0]"	0.07825639719944338	0.1553	0.12353456383996994	0.4061809101068008	0.01495938705531882
0	682	"[1, 2, 3, 2, 3, 4] [4|(50000.0, 450.0)(50000.0, 450.0)(50000.0, 630.0)(50000.0, 630.0)] [2|(224.0, 1.0, 123.0)(160.0, 1.0, 81.0)] [1, 1, 0, 0; 0, 1, 1, 1] [0, 0; 0, 0]"	0.03391356425980696	0.2364	0.09603956857754889	0.24757774097338198	0.015816674628689627
0	683	"[2, 2, 2, 2, 1, 3] [3|(50000.0, 450.0)(50000.0, 450.0)(46600.0, 400.0)] [2|(192.0, 1.0, 102.0)(160.0, 1.0, 81.0)] [1, 1, 0; 0, 1, 1] [0, 0; 0, 0]"	0.006876814845897458	0.1483	0.1287077300222418	0.3257271832019689	0.015653244055630268
0	684	"[2, 2, 1, 3, 1, 2] [3|(6600.0, 100.0)(40000.0, 350.0)(10000.0, 125.0)] [2|(128.0, 5.0, 30.0)(128.0, 5.0, 30.0)] [1, 1, 0; 0, 1, 1] [0, 0; 0, 0]"	0.0919959789484466	0.0635	0.39171285822955637	0.6842073388368073	0.01554030117371837
0	685	"[6, 2, 5, 4, 1, 3] [6|(50000.0, 450.0)(50000.0, 450.0)(50000.0, 630.0)(50000.0, 450.0)(50000.0, 450.0)(50000.0, 450.0)] [2|(224.0, 1.0, 123.0)(160.0, 1.0, 81.0)] [1, 1, 0, 0, 0, 0; 0, 1, 1, 1, 1, 1] [0, 0; 0, 0]"	0.04389984691441171	0.3084	0.06379006958778924	0.2519788253036306	0.015827624257671223
0	686	"[1, 2, 2, 4, 3, 2] [4|(50000.0, 450.0)(50000.0, 450.0)(16600.0, 175.0)(50000.0, 450.0)] [2|(224.0, 1.0, 123.0)(128.0, 3.0, 45.0)] [1, 1, 0, 0; 0, 1, 1, 1] [0, 0; 0, 0]"	0.06222920900806225	0.1693	0.1074460379047925	0.3208232456985981	0.016181675814285968
0	687	"[1, 2, 5, 4, 3, 2] [5|(50000.0, 450.0)(50000.0, 450.0)(16600.0, 175.0)(50000.0, 450.0)(50000.0, 450.0)] [2|(128.0, 5.0, 30.0)(128.0, 5.0, 30.0)] [1, 1, 0, 0, 0; 0, 1, 1, 1, 1] [0, 0; 0, 0]"	0.20317386729867587	0.2035	0.08585484251225686	0.41858574607280763	0.015715387082330806
0	688	"[6, 2, 5, 4, 1, 3] [6|(50000.0, 450.0)(50000.0, 450.0)(50000.0, 630.0)(50000.0, 630.0)(50000.0, 630.0)(50000.0, 450.0)] [2|(224.0, 1.0, 123.0)(256.0, 1.0, 144.0)] [1, 1, 0, 0, 0, 0; 0, 1, 1, 1, 1, 1] [0, 0; 0, 0]"	0.043987553384573816	0.3507	0.0641711407861878	0.2528972583220559	0.01547219138245409
0	689	"[1, 2, 2, 4, 3, 2] [4|(50000.0, 450.0)(50000.0, 450.0)(13300.0, 150.0)(50000.0, 450.0)] [2|(128.0, 5.0, 30.0)(128.0, 5.0, 30.0)] [1, 1, 0, 0; 0, 1, 1, 1] [0, 0; 0, 0]"	0.1777070228105485	0.156	0.11157043850878803	0.4143928673162407	0.015451093226540778
0	690	"[1, 2, 3, 3, 3, 2] [3|(50000.0, 450.0)(43300.0, 375.0)(20000.0, 200.0)] [2|(128.0, 5.0, 30.0)(128.0, 5.0, 30.0)] [1, 1, 0; 0, 1, 1] [0, 0; 0, 0]"	0.20257488188857878	0.1085	0.20646555340984848	0.4913658460444331	0.015009065559976546
0	691	"[2, 2, 3, 3, 1, 2] [3|(10000.0, 125.0)(40000.0, 350.0)(16600.0, 175.0)] [2|(128.0, 3.0, 45.0)(160.0, 1.0, 81.0)] [1, 1, 0; 0, 1, 1] [0, 0; 0, 0]"	0.02538127970253081	0.0776	0.2580622367453998	0.5287858116027104	0.015489874377798706
0	692	"[2, 2, 3, 2, 1, 2] [3|(6600.0, 100.0)(50000.0, 450.0)(50000.0, 630.0)] [2|(224.0, 1.0, 123.0)(160.0, 1.0, 81.0)] [1, 1, 0; 0, 1, 1] [0, 0; 0, 0]"	0.008491414125213722	0.1384	0.1766345737669076	0.3913551948909187	0.016147038661208726
0	693	"[1, 2, 1, 4, 3, 2] [4|(50000.0, 450.0)(50000.0, 450.0)(13300.0, 150.0)(40000.0, 350.0)] [2|(128.0, 5.0, 30.0)(128.0, 5.0, 30.0)] [1, 1, 0, 0; 0, 1, 1, 1] [0, 0; 0, 0]"	0.20141708555666044	0.146	0.11671115265891242	0.43278697695043233	0.015838433920974254
0	694	"[2, 2, 1, 3, 1, 2] [3|(6600.0, 100.0)(40000.0, 350.0)(13300.0, 150.0)] [2|(128.0, 3.0, 45.0)(160.0, 1.0, 81.0)] [1, 1, 0; 0, 1, 1] [0, 0; 0, 0]"	0.035536974200470854	0.0726	0.3598470952021969	0.6301476062856575	0.015123442422014334
0	695	"[1, 2, 3, 3, 1, 2] [3|(50000.0, 450.0)(43300.0, 375.0)(16600.0, 175.0)] [2|(128.0, 3.0, 45.0)(128.0, 5.0, 30.0)] [1, 1, 0; 0, 1, 1] [0, 0; 0, 0]"	0.15154703927161695	0.1075	0.21695427314817192	0.46476138324078986	0.015122050165846074
0	696	"[2, 2, 1, 3, 1, 2] [3|(6600.0, 100.0)(43300.0, 375.0)(13300.0, 150.0)] [2|(128.0, 3.0, 45.0)(128.0, 3.0, 45.0)] [1, 1, 0; 0, 1, 1] [0, 0; 0, 0]"	0.05535226188137632	0.0715	0.3518589902838363	0.61378730286449	0.015634917686875277
0	697	"[2, 2, 1, 3, 3, 2] [3|(6600.0, 100.0)(40000.0, 350.0)(13300.0, 150.0)] [2|(128.0, 3.0, 45.0)(128.0, 5.0, 30.0)] [1, 1, 0; 0, 1, 1] [0, 0; 0, 0]"	0.08258796369173531	0.0675	0.32841199974798047	0.6075003185040844	0.015958003275809273
0	698	"[2, 2, 1, 3, 3, 2] [3|(6600.0, 100.0)(40000.0, 350.0)(13300.0, 150.0)] [2|(128.0, 5.0, 30.0)(160.0, 1.0, 81.0)] [1, 1, 0; 0, 1, 1] [0, 0; 0, 0]"	0.03843778877489824	0.0711	0.33030902214981045	0.5858498489440241	0.015760716725581984
0	699	"[2, 2, 1, 4, 3, 2] [4|(6600.0, 100.0)(40000.0, 350.0)(13300.0, 150.0)(36600.0, 325.0)] [2|(128.0, 5.0, 30.0)(128.0, 3.0, 45.0)] [1, 1, 0, 0; 0, 1, 1, 1] [0, 0; 0, 0]"	0.0652959767135885	0.1	0.19989646234555253	0.546570871951577	0.015252179613912979
0	700	"[2, 2, 3, 4, 1, 3] [4|(50000.0, 450.0)(50000.0, 450.0)(50000.0, 630.0)(36600.0, 325.0)] [2|(224.0, 1.0, 123.0)(160.0, 1.0, 81.0)] [1, 1, 0, 0; 0, 1, 1, 1] [0, 0; 0, 0]"	0.021963286702186117	0.2059	0.10349378568441595	0.3182437377041305	0.016054760575186372
