0	541	"[2, 2, 2, 2, 1, 3] [3|(30000.0, 385.0)(46600.0, 400.0)(43300.0, 375.0)] [2|(160.0, 1.0, 81.0)(160.0, 1.0, 81.0)] [1, 1, 0; 0, 1, 1] [0, 0; 0, 0]"	0.00693998744076589	0.1322	0.14248022262801271	0.3529800031818504	0.015525449759543513
0	542	"[1, 2, 1, 2, 1, 2] [2|(20000.0, 200.0)(50000.0, 450.0)] [1|(128.0, 3.0, 45.0)] [1, 1] [0]"	0.18272548240582653	0.0695	0.3037656692628571	0.43193285702146794	0.014961120622333877
0	543	"[6, 2, 1, 5, 4, 3] [6|(50000.0, 630.0)(50000.0, 450.0)(50000.0, 450.0)(50000.0, 630.0)(50000.0, 630.0)(50000.0, 450.0)] [2|(256.0, 1.0, 144.0)(128.0, 1.0, 60.0)] [1, 1, 0, 0, 0, 0; 0, 1, 1, 1, 1, 1] [0, 0; 0, 0]"	0.043973494401276424	0.3444	0.0637866950050029	0.25231244478123194	0.015914419752972753
0	544	"[2, 2, 1, 2, 1, 2] [2|(6600.0, 100.0)(46600.0, 400.0)] [1|(128.0, 5.0, 30.0)] [1, 1] [0]"	0.08413106142127358	0.053	0.41038567274637344	0.5418423273198274	0.0155780338452668
0	545	"[2, 2, 1, 2, 4, 3] [4|(6600.0, 100.0)(46600.0, 400.0)(23300.0, 225.0)(10000.0, 125.0)] [2|(128.0, 5.0, 30.0)(128.0, 1.0, 60.0)] [1, 1, 0, 0; 0, 1, 1, 1] [0, 0; 0, 0]"	0.032009310745797964	0.094	0.19581527978624205	0.4805990234110859	0.01509491508780972
0	546	"[1, 2, 5, 2, 4, 3] [5|(50000.0, 450.0)(50000.0, 450.0)(50000.0, 450.0)(50000.0, 630.0)(50000.0, 630.0)] [2|(128.0, 1.0, 60.0)(128.0, 1.0, 60.0)] [1, 1, 0, 0, 0; 0, 1, 1, 1, 1] [0, 0; 0, 0]"	0.03393585401228383	0.273	0.07682926896367089	0.24755563496490293	0.015692411817999664
0	547	"[2, 2, 1, 2, 1, 2] [2|(6600.0, 100.0)(46600.0, 400.0)] [1|(128.0, 5.0, 30.0)] [1, 1] [0]"	0.0853819775319576	0.053	0.4099933075808371	0.5419415594260231	0.015519378456285694
0	548	"[2, 2, 5, 1, 4, 3] [5|(50000.0, 450.0)(50000.0, 450.0)(23300.0, 225.0)(30000.0, 275.0)(46600.0, 400.0)] [2|(128.0, 1.0, 60.0)(128.0, 1.0, 60.0)] [1, 1, 0, 0, 0; 0, 1, 1, 1, 1] [0, 0; 0, 0]"	0.02193803285832551	0.192	0.08560035425812616	0.3472515361177371	0.016102233447222346
0	549	"[1, 2, 2, 1, 1, 2] [2|(50000.0, 450.0)(43300.0, 375.0)] [1|(128.0, 5.0, 30.0)] [1, 1] [0]"	0.3552947189080009	0.0855	0.20741672413781412	0.4345068123839328	0.01588375282714555
0	550	"[2, 2, 1, 2, 1, 2] [2|(6600.0, 100.0)(46600.0, 400.0)] [1|(128.0, 3.0, 45.0)] [1, 1] [0]"	0.05038306425782698	0.0545	0.40991676945551636	0.5296190948511361	0.015652837006658628
0	551	"[2, 2, 1, 2, 1, 3] [3|(50000.0, 450.0)(50000.0, 450.0)(23300.0, 225.0)] [2|(128.0, 1.0, 60.0)(128.0, 1.0, 60.0)] [1, 1, 0; 0, 1, 1] [0, 0; 0, 0]"	0.011914100214151142	0.1245	0.136667544627815	0.33689924011343775	0.01524607078569504
0	552	"[2, 2, 2, 1, 1, 3] [3|(13300.0, 150.0)(46600.0, 400.0)(23300.0, 225.0)] [2|(128.0, 5.0, 30.0)(128.0, 1.0, 60.0)] [1, 1, 0; 0, 1, 1] [0, 0; 0, 0]"	0.07078911831657049	0.0865	0.23663239772329892	0.48149729972836103	0.015396360515048339
0	553	"[1, 2, 1, 1, 1, 2] [2|(50000.0, 450.0)(50000.0, 450.0)] [1|(128.0, 3.0, 45.0)] [1, 1] [0]"	0.24294101145284666	0.0945	0.19228938991797417	0.34678652938204513	0.015486057158631786
0	554	"[2, 2, 2, 1, 1, 2] [2|(13300.0, 150.0)(46600.0, 400.0)] [1|(128.0, 1.0, 60.0)] [1, 1] [0]"	0.02696431487256875	0.061	0.3443986500368124	0.45755394999719634	0.015664268390916013
0	555	"[2, 2, 2, 1, 4, 3] [4|(13300.0, 150.0)(46600.0, 400.0)(23300.0, 225.0)(10000.0, 125.0)] [2|(128.0, 5.0, 30.0)(128.0, 1.0, 60.0)] [1, 1, 0, 0; 0, 1, 1, 1] [0, 0; 0, 0]"	0.05678022827476262	0.099	0.18494934907615138	0.4735646170437694	0.015258495888376543
0	556	"[1, 2, 1, 2, 1, 1] [2|(50000.0, 450.0)(50000.0, 450.0)] [1|(128.0, 3.0, 45.0)] [1, 1] [0]"	0.20445062334238412	0.0945	0.1922269802188326	0.3696544869124374	0.015412638578358744
0	557	"[6, 2, 5, 1, 4, 3] [6|(50000.0, 450.0)(50000.0, 450.0)(50000.0, 450.0)(36600.0, 325.0)(50000.0, 630.0)(50000.0, 450.0)] [2|(128.0, 3.0, 45.0)(128.0, 3.0, 45.0)] [1, 1, 0, 0, 0, 0; 0, 1, 1, 1, 1, 1] [0, 0; 0, 0]"	0.13170436178570782	0.2845	0.06546459883111182	0.38356931331721067	0.01597759132725129
0	558	"[2, 2, 1, 2, 1, 2] [2|(13300.0, 150.0)(46600.0, 400.0)] [1|(128.0, 3.0, 45.0)] [1, 1] [0]"	0.05087233182561833	0.0595	0.2904776881220252	0.43691540007695073	0.015673293342691127
0	559	"[2, 2, 1, 1, 1, 2] [2|(26600.0, 250.0)(43300.0, 375.0)] [1|(128.0, 5.0, 30.0)] [1, 1] [0]"	0.18509296910132428	0.0655	0.27288845641800263	0.4692803013808371	0.015724308203930913
0	560	"[6, 2, 5, 1, 4, 3] [6|(50000.0, 450.0)(50000.0, 450.0)(50000.0, 450.0)(50000.0, 630.0)(50000.0, 630.0)(50000.0, 450.0)] [2|(128.0, 5.0, 30.0)(128.0, 3.0, 45.0)] [1, 1, 0, 0, 0, 0; 0, 1, 1, 1, 1, 1] [0, 0; 0, 0]"	0.1515532649840447	0.3135	0.0640722691773773	0.3907826352425232	0.015574252956627278
