1	"[[2][1][4][5][3][1]] [5|(46600.0, 560.0)(46600.0, 560.0)(50000.0, 450.0)(13300.0, 210.0)(50000.0, 450.0)] [7|(128.0, 1.0, 60.0)(128.0, 3.0, 45.0)(224.0, 3.0, 108.0)(224.0, 1.0, 123.0)(128.0, 5.0, 30.0)(256.0, 3.0, 129.0)(160.0, 3.0, 66.0)] [1, 1, 1, 1, 1; 1, 1, 1, 1, 1; 1, 1, 1, 1, 1; 1, 1, 1, 1, 0; 1, 1, 1, 1, 1; 1, 1, 1, 1, 0; 1, 0, 1, 1, 1]"	0.011572660498670622	0.2791	0.10246131799638125	0.3276478511207745	0.015008340621849695
2	"[[2][5][4][5][3][1]] [5|(50000.0, 450.0)(50000.0, 630.0)(50000.0, 450.0)(50000.0, 630.0)(50000.0, 450.0)] [6|(128.0, 1.0, 60.0)(128.0, 1.0, 60.0)(128.0, 3.0, 45.0)(128.0, 3.0, 45.0)(128.0, 5.0, 30.0)(160.0, 1.0, 81.0)] [1, 0, 1, 1, 1; 1, 1, 1, 1, 1; 1, 1, 1, 1, 0; 1, 1, 1, 0, 0; 1, 1, 0, 1, 1; 1, 1, 0, 1, 1]"	0.011337708489040166	0.2931	0.07680359532394723	0.2476567371929299	0.015941963828669994
3	"[[1][1][2][1][2][1]] [2|(46600.0, 400.0)(6600.0, 100.0)] [1|(128.0, 5.0, 30.0)] [1, 1]"	0.08404534780506294	0.053	0.4089747426658197	0.5407753609883645	0.01587672784808951
4	"[[2][2][4][2][3][1]] [4|(50000.0, 450.0)(43300.0, 375.0)(50000.0, 450.0)(50000.0, 630.0)] [6|(128.0, 1.0, 60.0)(128.0, 1.0, 60.0)(128.0, 3.0, 45.0)(224.0, 1.0, 123.0)(128.0, 5.0, 30.0)(224.0, 5.0, 93.0)] [1, 0, 1, 1; 1, 1, 1, 1; 1, 1, 1, 1; 1, 1, 1, 1; 1, 1, 0, 1; 1, 1, 1, 0]"	0.003957465372445881	0.2316	0.10761023873204588	0.34473347247601543	0.015927270889056835
5	"[[3][4][5][1][2][6]] [6|(50000.0, 450.0)(50000.0, 630.0)(50000.0, 450.0)(50000.0, 630.0)(50000.0, 450.0)(50000.0, 630.0)] [15|(128.0, 1.0, 60.0)(128.0, 1.0, 60.0)(160.0, 5.0, 51.0)(224.0, 1.0, 123.0)(192.0, 3.0, 87.0)(160.0, 1.0, 81.0)(224.0, 5.0, 93.0)(256.0, 5.0, 114.0)(192.0, 3.0, 87.0)(160.0, 3.0, 66.0)(160.0, 5.0, 51.0)(256.0, 3.0, 129.0)(256.0, 5.0, 114.0)(128.0, 5.0, 30.0)(160.0, 5.0, 51.0)] [1, 0, 1, 1, 1, 1; 1, 1, 1, 1, 1, 1; 1, 1, 1, 1, 1, 1; 1, 1, 1, 1, 1, 1; 1, 1, 1, 1, 1, 0; 1, 1, 1, 0, 0, 1; 1, 0, 1, 1, 1, 1; 1, 1, 1, 0, 1, 1; 1, 1, 0, 1, 1, 1; 1, 1, 1, 1, 1, 1; 1, 1, 0, 0, 1, 1; 1, 1, 0, 1, 1, 1; 1, 0, 0, 0, 1, 0; 1, 1, 1, 1, 1, 1; 1, 1, 1, 1, 1, 1]"	0.005873529054938228	0.4437	0.0637969714657446	0.2526216753892592	0.01584082483177324
6	"[[2][1][4][1][3][1]] [4|(46600.0, 400.0)(43300.0, 375.0)(23300.0, 225.0)(46600.0, 400.0)] [1|(128.0, 5.0, 30.0)] [1, 1, 1, 1]"	0.30299674497585355	0.143	0.11107638394846277	0.43231098994488093	0.01585280273567483
7	"[[2][1][1][2][3][1]] [3|(50000.0, 450.0)(43300.0, 375.0)(16600.0, 175.0)] [1|(128.0, 5.0, 30.0)] [1, 1, 1]"	0.3524362382303105	0.103	0.15171037250838001	0.43949619687740704	0.016146558166985014
8	"[[1][1][2][1][2][1]] [2|(46600.0, 400.0)(6600.0, 100.0)] [1|(128.0, 1.0, 60.0)] [1, 1]"	0.016876934489302952	0.056	0.4107617551186166	0.5201854269841433	0.015942492427608992
9	"[[2][1][4][5][3][1]] [5|(46600.0, 400.0)(43300.0, 375.0)(23300.0, 225.0)(46600.0, 400.0)(33300.0, 300.0)] [1|(128.0, 5.0, 30.0)] [1, 1, 1, 1, 1]"	0.40317671272896016	0.173	0.09587310240762285	0.47608365025081123	0.01584637304087343
10	"[[2][1][4][3][3][1]] [4|(46600.0, 560.0)(40000.0, 350.0)(13300.0, 210.0)(6600.0, 100.0)] [6|(128.0, 1.0, 60.0)(128.0, 1.0, 60.0)(128.0, 3.0, 45.0)(224.0, 5.0, 93.0)(128.0, 5.0, 30.0)(256.0, 3.0, 129.0)] [1, 1, 1, 1; 1, 1, 1, 1; 1, 1, 1, 1; 1, 1, 1, 1; 1, 1, 0, 1; 1, 1, 1, 0]"	0.013514761309942338	0.1637	0.24032715024938744	0.4586794566131686	0.015053030231668445
11	"[[2][1][3][2][1][1]] [3|(46600.0, 400.0)(43300.0, 375.0)(50000.0, 450.0)] [1|(128.0, 3.0, 45.0)] [1, 1, 1]"	0.22248908361681274	0.127	0.1408945511653472	0.3886316810730103	0.015728916979445482
12	"[[3][4][5][1][2][6]] [6|(50000.0, 450.0)(43300.0, 375.0)(50000.0, 450.0)(50000.0, 630.0)(50000.0, 450.0)(46600.0, 560.0)] [1|(128.0, 3.0, 45.0)] [1, 1, 1, 1, 1, 1]"	0.26514880529375645	0.296	0.06490439127066326	0.3948296730343801	0.015415599511911297
13	"[[1][1][2][3][3][1]] [3|(50000.0, 450.0)(6600.0, 100.0)(10000.0, 125.0)] [1|(128.0, 1.0, 60.0)] [1, 1, 1]"	0.03712557535691058	0.0735	0.35153260169376505	0.5472829371173755	0.01539422704522475
14	"[[2][1][4][5][3][1]] [5|(50000.0, 450.0)(43300.0, 375.0)(10000.0, 125.0)(46600.0, 400.0)(33300.0, 300.0)] [1|(128.0, 5.0, 30.0)] [1, 1, 1, 1, 1]"	0.40606979720296277	0.168	0.10610697749055834	0.4965009295737751	0.01580374457918049
15	"[[2][1][1][2][3][1]] [3|(46600.0, 560.0)(40000.0, 350.0)(16600.0, 175.0)] [2|(128.0, 5.0, 30.0)(128.0, 3.0, 45.0)] [1, 1, 0; 1, 0, 1]"	0.16981741902507458	0.116	0.16148151188285761	0.426281072324767	0.015496915582573679
16	"[[2][1][1][2][3][1]] [3|(50000.0, 450.0)(43300.0, 375.0)(50000.0, 450.0)] [1|(128.0, 3.0, 45.0)] [1, 1, 1]"	0.2125728219198403	0.132	0.1368186421676208	0.35079268592590807	0.01648788751734168
17	"[[3][4][5][1][2][6]] [6|(50000.0, 450.0)(50000.0, 630.0)(50000.0, 450.0)(50000.0, 630.0)(50000.0, 450.0)(50000.0, 630.0)] [15|(224.0, 1.0, 123.0)(128.0, 1.0, 60.0)(192.0, 1.0, 102.0)(224.0, 1.0, 123.0)(192.0, 3.0, 87.0)(160.0, 1.0, 81.0)(224.0, 5.0, 93.0)(256.0, 5.0, 114.0)(192.0, 3.0, 87.0)(160.0, 3.0, 66.0)(192.0, 5.0, 72.0)(256.0, 3.0, 129.0)(192.0, 3.0, 87.0)(128.0, 5.0, 30.0)(160.0, 5.0, 51.0)] [1, 1, 1, 1, 0, 1; 1, 1, 0, 1, 1, 0; 1, 1, 1, 1, 1, 1; 1, 0, 1, 1, 0, 1; 1, 1, 0, 1, 1, 0; 1, 1, 1, 0, 0, 1; 1, 0, 1, 1, 1, 1; 1, 1, 0, 0, 0, 1; 1, 1, 0, 1, 1, 1; 1, 0, 1, 1, 1, 0; 1, 1, 0, 0, 1, 0; 1, 1, 0, 1, 0, 1; 1, 1, 0, 0, 1, 1; 1, 1, 1, 1, 0, 1; 1, 1, 1, 1, 1, 1]"	0.005865734353305516	0.4545	0.06391234516431143	0.2536039478908994	0.015579577630805978
18	"[[2][1][4][1][3][1]] [4|(46600.0, 400.0)(43300.0, 375.0)(23300.0, 225.0)(46600.0, 400.0)] [1|(128.0, 5.0, 30.0)] [1, 1, 1, 1]"	0.30570350024809406	0.143	0.11070255214550731	0.4341112868455724	0.015895078968675168
19	"[[3][4][5][1][2][6]] [6|(46600.0, 560.0)(20000.0, 200.0)(50000.0, 450.0)(46600.0, 400.0)(33300.0, 300.0)(50000.0, 630.0)] [6|(128.0, 3.0, 45.0)(224.0, 1.0, 123.0)(192.0, 1.0, 102.0)(224.0, 1.0, 123.0)(128.0, 5.0, 30.0)(160.0, 1.0, 81.0)] [1, 1, 0, 1, 1, 1; 1, 0, 1, 1, 1, 0; 1, 1, 1, 1, 1, 1; 1, 1, 1, 1, 1, 1; 1, 1, 0, 1, 1, 0; 1, 1, 1, 0, 1, 1]"	0.029308242921415376	0.3044	0.07566766967128677	0.3178764684101964	0.015125684900429478
20	"[[1][1][2][3][1][1]] [3|(46600.0, 400.0)(6600.0, 100.0)(10000.0, 125.0)] [2|(192.0, 1.0, 102.0)(224.0, 1.0, 123.0)] [1, 1, 1; 1, 1, 1]"	0.014884417172718729	0.085	0.33058566267597034	0.5662230688722781	0.015761343402249536
21	"[[1][1][2][3][2][1]] [3|(46600.0, 400.0)(6600.0, 100.0)(20000.0, 200.0)] [1|(128.0, 5.0, 30.0)] [1, 1, 1]"	0.18429282290398025	0.073	0.3097437024233372	0.5892131756009524	0.015801170907822903
22	"[[3][4][5][1][2][6]] [6|(33300.0, 420.0)(46600.0, 560.0)(50000.0, 450.0)(50000.0, 630.0)(50000.0, 450.0)(43300.0, 525.0)] [15|(160.0, 3.0, 66.0)(128.0, 1.0, 60.0)(160.0, 5.0, 51.0)(224.0, 1.0, 123.0)(128.0, 5.0, 30.0)(160.0, 1.0, 81.0)(160.0, 3.0, 66.0)(256.0, 5.0, 114.0)(192.0, 3.0, 87.0)(160.0, 3.0, 66.0)(160.0, 5.0, 51.0)(224.0, 5.0, 93.0)(256.0, 5.0, 114.0)(128.0, 5.0, 30.0)(160.0, 5.0, 51.0)] [1, 0, 1, 1, 1, 1; 1, 1, 1, 1, 1, 1; 1, 1, 1, 1, 1, 1; 1, 1, 1, 1, 1, 1; 1, 1, 1, 1, 1, 0; 1, 1, 1, 0, 1, 1; 1, 0, 1, 1, 1, 1; 1, 1, 1, 1, 1, 0; 1, 1, 0, 1, 1, 0; 1, 1, 1, 1, 0, 1; 1, 1, 1, 0, 1, 0; 1, 1, 1, 1, 1, 1; 1, 0, 0, 1, 1, 1; 1, 1, 1, 1, 0, 1; 1, 1, 1, 0, 1, 1]"	0.01666366865413583	0.4118	0.07182502122754326	0.3582207283916272	0.015108470088308701
23	"[[3][4][5][1][2][6]] [6|(50000.0, 450.0)(40000.0, 350.0)(20000.0, 200.0)(43300.0, 375.0)(50000.0, 450.0)(50000.0, 630.0)] [15|(224.0, 1.0, 123.0)(128.0, 3.0, 45.0)(192.0, 1.0, 102.0)(224.0, 1.0, 123.0)(128.0, 5.0, 30.0)(224.0, 5.0, 93.0)(128.0, 1.0, 60.0)(128.0, 1.0, 60.0)(128.0, 3.0, 45.0)(128.0, 1.0, 60.0)(160.0, 5.0, 51.0)(192.0, 1.0, 102.0)(160.0, 3.0, 66.0)(224.0, 5.0, 93.0)(160.0, 5.0, 51.0)] [1, 1, 1, 1, 1, 1; 1, 1, 1, 1, 1, 1; 1, 1, 1, 1, 1, 1; 1, 1, 1, 1, 0, 0; 1, 1, 1, 1, 0, 1; 1, 1, 1, 0, 1, 0; 1, 0, 1, 1, 1, 0; 1, 1, 0, 1, 1, 0; 1, 1, 0, 1, 0, 0; 1, 1, 0, 0, 0, 0; 1, 1, 0, 0, 1, 0; 1, 1, 1, 0, 0, 1; 1, 0, 1, 0, 1, 1; 1, 1, 1, 1, 0, 0; 1, 1, 0, 0, 1, 1]"	0.005837657764723956	0.3559	0.09023756073667809	0.36255083496317664	0.016183606533464887
24	"[[2][1][1][2][3][1]] [3|(46600.0, 400.0)(43300.0, 375.0)(50000.0, 450.0)] [2|(128.0, 1.0, 60.0)(128.0, 3.0, 45.0)] [1, 1, 1; 1, 1, 1]"	0.03548160606537517	0.133	0.1414088495595209	0.30485882640708417	0.016254808432133845
25	"[[3][4][5][1][2][6]] [6|(46600.0, 400.0)(43300.0, 375.0)(20000.0, 200.0)(50000.0, 630.0)(50000.0, 450.0)(46600.0, 560.0)] [15|(224.0, 1.0, 123.0)(128.0, 1.0, 60.0)(128.0, 3.0, 45.0)(224.0, 1.0, 123.0)(128.0, 5.0, 30.0)(224.0, 5.0, 93.0)(160.0, 1.0, 81.0)(128.0, 1.0, 60.0)(128.0, 3.0, 45.0)(128.0, 1.0, 60.0)(192.0, 3.0, 87.0)(192.0, 1.0, 102.0)(160.0, 3.0, 66.0)(224.0, 1.0, 123.0)(128.0, 3.0, 45.0)] [1, 1, 1, 1, 1, 0; 1, 1, 1, 1, 1, 1; 1, 1, 1, 1, 1, 1; 1, 1, 1, 1, 0, 1; 1, 0, 1, 1, 1, 1; 1, 1, 1, 0, 1, 1; 1, 1, 1, 1, 1, 0; 1, 1, 0, 1, 1, 1; 1, 1, 0, 1, 0, 1; 1, 1, 1, 1, 1, 0; 1, 1, 1, 0, 1, 0; 1, 1, 1, 0, 0, 1; 1, 0, 0, 0, 1, 1; 1, 1, 1, 0, 0, 0; 1, 1, 1, 1, 1, 1]"	0.005862011219157364	0.3758	0.08799912851148206	0.3504995679102333	0.015200640545132678
26	"[[2][5][4][5][3][1]] [5|(33300.0, 420.0)(50000.0, 630.0)(50000.0, 450.0)(50000.0, 630.0)(50000.0, 450.0)] [2|(128.0, 3.0, 45.0)(128.0, 1.0, 60.0)] [1, 1, 0, 1, 1; 1, 0, 1, 0, 1]"	0.09494298394553762	0.2685	0.07917982091297437	0.3404374617742959	0.0155782410287987
27	"[[2][1][4][5][3][1]] [5|(50000.0, 450.0)(43300.0, 375.0)(20000.0, 200.0)(43300.0, 375.0)(33300.0, 300.0)] [1|(128.0, 3.0, 45.0)] [1, 1, 1, 1, 1]"	0.24187913433354877	0.1745	0.09541302527003215	0.37254656041300493	0.016121552856710592
28	"[[2][1][4][1][3][1]] [4|(46600.0, 560.0)(43300.0, 375.0)(50000.0, 450.0)(46600.0, 400.0)] [1|(192.0, 1.0, 102.0)] [1, 1, 1, 1]"	0.061009063059452376	0.1887	0.10460184741779507	0.2907385274875016	0.015320727714397214
29	"[[1][1][2][1][2][1]] [2|(50000.0, 450.0)(6600.0, 100.0)] [1|(128.0, 3.0, 45.0)] [1, 1]"	0.050655198005790956	0.0595	0.39436885860982246	0.5046524751543916	0.015630346738281658
30	"[[3][4][5][1][2][6]] [6|(46600.0, 560.0)(40000.0, 350.0)(50000.0, 450.0)(50000.0, 630.0)(50000.0, 450.0)(50000.0, 630.0)] [2|(128.0, 3.0, 45.0)(256.0, 1.0, 144.0)] [1, 1, 1, 1, 1, 1; 1, 1, 1, 0, 1, 0]"	0.13185964069792502	0.3259	0.06600496795790015	0.3942052098858507	0.015513214012920115
31	"[[1][1][2][3][1][1]] [3|(46600.0, 400.0)(6600.0, 100.0)(23300.0, 225.0)] [1|(128.0, 1.0, 60.0)] [1, 1, 1]"	0.029821080339725352	0.0785	0.25364020088691097	0.508577721635942	0.01553855391747195
32	"[[1][1][2][3][2][1]] [3|(50000.0, 450.0)(6600.0, 100.0)(10000.0, 125.0)] [1|(128.0, 3.0, 45.0)] [1, 1, 1]"	0.11084949131885877	0.072	0.3703300915539541	0.5926380140494996	0.015674753271912575
33	"[[1][1][2][3][2][1]] [3|(46600.0, 560.0)(50000.0, 630.0)(23300.0, 225.0)] [2|(128.0, 3.0, 45.0)(128.0, 3.0, 45.0)] [1, 1, 1; 1, 1, 1]"	0.05547104381604582	0.1505	0.1643177879450312	0.401196563273611	0.015277614373270992
34	"[[2][1][4][5][3][1]] [5|(50000.0, 450.0)(43300.0, 375.0)(50000.0, 450.0)(46600.0, 400.0)(33300.0, 300.0)] [1|(128.0, 1.0, 60.0)] [1, 1, 1, 1, 1]"	0.08064138892903627	0.2035	0.08810376219234033	0.28601779253307325	0.016020065826139192
35	"[[2][1][4][2][3][1]] [4|(50000.0, 450.0)(43300.0, 375.0)(10000.0, 125.0)(6600.0, 100.0)] [1|(128.0, 5.0, 30.0)] [1, 1, 1, 1]"	0.40480741480082727	0.108	0.1915430191337278	0.5707374928492134	0.015608185094807884
36	"[[2][1][4][2][3][1]] [4|(46600.0, 560.0)(40000.0, 350.0)(50000.0, 450.0)(6600.0, 100.0)] [6|(128.0, 5.0, 30.0)(128.0, 3.0, 45.0)(224.0, 3.0, 108.0)(256.0, 1.0, 144.0)(128.0, 5.0, 30.0)(224.0, 5.0, 93.0)] [1, 0, 1, 1; 1, 1, 1, 1; 1, 1, 1, 1; 1, 1, 1, 1; 1, 0, 0, 1; 1, 1, 1, 0]"	0.04618033994640921	0.191	0.17508623560945205	0.4488699385908046	0.015169612464243002
37	"[[3][4][5][1][2][6]] [6|(50000.0, 450.0)(50000.0, 630.0)(50000.0, 450.0)(50000.0, 630.0)(50000.0, 450.0)(50000.0, 630.0)] [15|(128.0, 1.0, 60.0)(128.0, 1.0, 60.0)(160.0, 5.0, 51.0)(224.0, 1.0, 123.0)(192.0, 3.0, 87.0)(160.0, 1.0, 81.0)(224.0, 5.0, 93.0)(256.0, 5.0, 114.0)(192.0, 3.0, 87.0)(160.0, 3.0, 66.0)(160.0, 5.0, 51.0)(256.0, 3.0, 129.0)(256.0, 5.0, 114.0)(128.0, 5.0, 30.0)(160.0, 5.0, 51.0)] [1, 1, 1, 1, 1, 1; 1, 1, 1, 1, 1, 1; 1, 1, 1, 1, 1, 1; 1, 1, 1, 1, 1, 1; 1, 1, 1, 1, 1, 0; 1, 1, 1, 0, 0, 1; 1, 0, 1, 1, 1, 1; 1, 1, 1, 0, 1, 1; 1, 1, 0, 1, 1, 1; 1, 1, 1, 1, 1, 1; 1, 1, 0, 0, 1, 1; 1, 1, 0, 1, 1, 1; 1, 0, 0, 0, 1, 0; 1, 1, 1, 1, 1, 1; 1, 1, 1, 1, 1, 1]"	0.005844956066474057	0.4437	0.06413346341314764	0.2544879550693506	0.015242783440911198
38	"[[1][1][2][3][2][1]] [3|(46600.0, 400.0)(6600.0, 100.0)(23300.0, 225.0)] [1|(128.0, 3.0, 45.0)] [1, 1, 1]"	0.11061339422320038	0.077	0.3020040748448353	0.5574018333698945	0.015478964235099835
39	"[[1][1][2][3][1][1]] [3|(50000.0, 450.0)(43300.0, 375.0)(10000.0, 125.0)] [1|(224.0, 1.0, 123.0)] [1, 1, 1]"	0.03002438654151785	0.1073	0.23723677682175123	0.45983294882091086	0.01578546887030701
40	"[[2][1][4][1][3][1]] [4|(50000.0, 450.0)(40000.0, 350.0)(50000.0, 450.0)(46600.0, 400.0)] [2|(128.0, 5.0, 30.0)(128.0, 1.0, 60.0)] [1, 1, 1, 1; 1, 1, 1, 0]"	0.15302070826385195	0.174	0.10234848301725728	0.421628160830516	0.015695675034026947
41	"[[1][1][2][3][3][1]] [3|(46600.0, 560.0)(6600.0, 100.0)(16600.0, 175.0)] [1|(128.0, 1.0, 60.0)] [1, 1, 1]"	0.036918467736345585	0.0895	0.2906957424521579	0.5006004276659224	0.01534569235144141
42	"[[1][1][2][3][1][1]] [3|(46600.0, 400.0)(6600.0, 100.0)(50000.0, 450.0)] [2|(128.0, 1.0, 60.0)(224.0, 1.0, 123.0)] [1, 1, 1; 1, 1, 0]"	0.014980759438647245	0.1133	0.22116416611168133	0.48234646325648134	0.015858485220895745
43	"[[1][1][2][3][1][1]] [3|(46600.0, 400.0)(6600.0, 100.0)(20000.0, 200.0)] [1|(128.0, 3.0, 45.0)] [1, 1, 1]"	0.09019565531435839	0.0745	0.2617829363070509	0.5311308887768603	0.015780032620616183
44	"[[1][1][2][1][2][1]] [2|(46600.0, 400.0)(43300.0, 375.0)] [1|(128.0, 3.0, 45.0)] [1, 1]"	0.051161142410345695	0.082	0.20827863702973443	0.3758134829911821	0.016216054043242934
45	"[[2][1][1][2][3][1]] [3|(50000.0, 450.0)(43300.0, 375.0)(16600.0, 175.0)] [1|(128.0, 5.0, 30.0)] [1, 1, 1]"	0.35571770035958244	0.103	0.1516903345551898	0.4411290370017795	0.015990129650039347
46	"[[1][1][2][3][2][1]] [3|(46600.0, 400.0)(6600.0, 100.0)(10000.0, 125.0)] [1|(128.0, 3.0, 45.0)] [1, 1, 1]"	0.11060063960631487	0.067	0.3772740023558574	0.6137409774663835	0.01580331855656863
47	"[[2][1][4][5][3][1]] [5|(50000.0, 450.0)(40000.0, 350.0)(50000.0, 450.0)(46600.0, 400.0)(50000.0, 450.0)] [2|(128.0, 5.0, 30.0)(128.0, 1.0, 60.0)] [1, 1, 0, 1, 1; 1, 0, 1, 0, 1]"	0.18840945410378251	0.219	0.0820150625143448	0.4137533509276655	0.016071001477059334
48	"[[2][1][4][5][3][1]] [5|(50000.0, 450.0)(40000.0, 350.0)(50000.0, 450.0)(46600.0, 400.0)(50000.0, 450.0)] [2|(128.0, 5.0, 30.0)(128.0, 3.0, 45.0)] [1, 1, 0, 1, 1; 1, 0, 1, 0, 1]"	0.19542930639421668	0.2175	0.08167618963741016	0.41805528969172645	0.016012445202543128
49	"[[1][1][2][1][2][1]] [2|(50000.0, 450.0)(6600.0, 100.0)] [1|(192.0, 1.0, 102.0)] [1, 1]"	0.017051495143498213	0.0652	0.39750120321556526	0.4960967705265139	0.015825762691766936
50	"[[2][1][4][5][3][1]] [5|(46600.0, 400.0)(43300.0, 375.0)(20000.0, 200.0)(43300.0, 375.0)(33300.0, 300.0)] [1|(128.0, 3.0, 45.0)] [1, 1, 1, 1, 1]"	0.2431191073847126	0.1695	0.09780678884557578	0.38296488348821006	0.015962958457152808
