1	"[[1][1][2][1][2][1]] [2|(46600.0, 400.0)(6600.0, 100.0)] [1|(128.0, 5.0, 30.0)] [1, 1]"	0.08388099469068326	0.053	0.4080886118705507	0.5398647998658194	0.015753812731944407
2	"[[4][1][5][2][6][3]] [6|(50000.0, 630.0)(50000.0, 630.0)(50000.0, 630.0)(50000.0, 450.0)(50000.0, 630.0)(50000.0, 630.0)] [15|(160.0, 1.0, 81.0)(128.0, 3.0, 45.0)(160.0, 1.0, 81.0)(224.0, 1.0, 123.0)(224.0, 1.0, 123.0)(256.0, 3.0, 129.0)(256.0, 3.0, 129.0)(128.0, 5.0, 30.0)(224.0, 3.0, 108.0)(256.0, 1.0, 144.0)(256.0, 1.0, 144.0)(160.0, 1.0, 81.0)(256.0, 5.0, 114.0)(256.0, 1.0, 144.0)(256.0, 3.0, 129.0)] [1, 1, 1, 1, 1, 1; 1, 1, 1, 1, 1, 1; 1, 1, 1, 1, 1, 1; 1, 1, 1, 1, 1, 1; 1, 1, 1, 1, 1, 0; 1, 1, 1, 0, 0, 1; 1, 1, 0, 0, 1, 1; 1, 1, 1, 0, 0, 1; 1, 1, 0, 0, 0, 0; 1, 1, 1, 1, 1, 0; 1, 1, 1, 0, 1, 0; 1, 1, 0, 0, 0, 1; 1, 0, 0, 0, 1, 1; 1, 0, 1, 1, 0, 1; 1, 1, 1, 0, 1, 1]"	0.005862330246746872	0.5205	0.06374857275918298	0.25244479475955695	0.015496437125218577
3	"[[1][1][2][3][2][1]] [3|(50000.0, 630.0)(13300.0, 210.0)(13300.0, 150.0)] [3|(160.0, 1.0, 81.0)(224.0, 5.0, 93.0)(128.0, 5.0, 30.0)] [1, 1, 0; 1, 0, 1; 1, 1, 1]"	0.038787012158744895	0.1194	0.25783358173945153	0.47342936491731014	0.014972314489891485
4	"[[2][2][2][2][3][1]] [3|(50000.0, 630.0)(50000.0, 450.0)(33300.0, 300.0)] [3|(128.0, 1.0, 60.0)(224.0, 5.0, 93.0)(128.0, 5.0, 30.0)] [1, 1, 1; 1, 1, 1; 1, 1, 0]"	0.00460316085989775	0.1563	0.13173204804905636	0.3275834200844219	0.015678303786533676
5	"[[3][1][3][2][4][1]] [4|(46600.0, 400.0)(50000.0, 450.0)(50000.0, 450.0)(43300.0, 375.0)] [1|(128.0, 5.0, 30.0)] [1, 1, 1, 1]"	0.40635655500502954	0.1705	0.09971267991076302	0.45291265033841954	0.015677952380303006
6	"[[3][2][1][2][4][3]] [4|(50000.0, 630.0)(50000.0, 450.0)(50000.0, 450.0)(50000.0, 450.0)] [1|(160.0, 1.0, 81.0)] [1, 1, 1, 1]"	0.06781524611775974	0.2061	0.09579542647325116	0.24807037423787948	0.015752595253480866
7	"[[3][1][1][2][4][1]] [4|(50000.0, 450.0)(50000.0, 450.0)(50000.0, 450.0)(50000.0, 450.0)] [1|(128.0, 5.0, 30.0)] [1, 1, 1, 1]"	0.3522673461403868	0.183	0.0960840063274438	0.41376428576934526	0.015879038928760927
8	"[[4][1][5][2][6][3]] [6|(50000.0, 450.0)(40000.0, 350.0)(43300.0, 375.0)(50000.0, 450.0)(46600.0, 400.0)(36600.0, 325.0)] [1|(128.0, 3.0, 45.0)] [1, 1, 1, 1, 1, 1]"	0.26497801082289907	0.2395	0.06968691488347908	0.40391900448344986	0.015763096030352156
9	"[[3][1][4][2][1][1]] [4|(50000.0, 450.0)(40000.0, 350.0)(50000.0, 630.0)(50000.0, 450.0)] [1|(128.0, 5.0, 30.0)] [1, 1, 1, 1]"	0.3706745787802845	0.191	0.10107590105692094	0.4199307643767045	0.015514397265961353
10	"[[1][1][2][1][2][1]] [2|(50000.0, 630.0)(13300.0, 210.0)] [1|(128.0, 3.0, 45.0)] [1, 1]"	0.0506827927744274	0.0885	0.27884570085546845	0.4150073214481448	0.015065623262244464
11	"[[2][1][2][1][3][1]] [3|(50000.0, 450.0)(50000.0, 450.0)(43300.0, 375.0)] [3|(160.0, 1.0, 81.0)(224.0, 5.0, 93.0)(128.0, 5.0, 30.0)] [1, 1, 1; 1, 1, 1; 1, 1, 1]"	0.020265170660152328	0.1479	0.12910068086324877	0.27786801604039724	0.0163040974490984
12	"[[3][1][4][2][4][1]] [4|(46600.0, 400.0)(50000.0, 450.0)(43300.0, 375.0)(50000.0, 450.0)] [1|(128.0, 5.0, 30.0)] [1, 1, 1, 1]"	0.4022705169099369	0.1705	0.10243155391665319	0.45442122549689057	0.015993367857661096
13	"[[2][1][2][1][3][1]] [3|(50000.0, 450.0)(40000.0, 350.0)(13300.0, 150.0)] [1|(128.0, 5.0, 30.0)] [1, 1, 1]"	0.3038491652628848	0.098	0.15959516303182902	0.4449714530778529	0.015699811611014206
14	"[[4][1][5][2][6][3]] [6|(50000.0, 630.0)(6600.0, 100.0)(33300.0, 300.0)(33300.0, 300.0)(16600.0, 175.0)(36600.0, 325.0)] [15|(128.0, 1.0, 60.0)(224.0, 5.0, 93.0)(128.0, 5.0, 30.0)(224.0, 1.0, 123.0)(160.0, 5.0, 51.0)(256.0, 3.0, 129.0)(192.0, 3.0, 87.0)(128.0, 3.0, 45.0)(192.0, 3.0, 87.0)(160.0, 5.0, 51.0)(128.0, 1.0, 60.0)(256.0, 1.0, 144.0)(192.0, 1.0, 102.0)(256.0, 3.0, 129.0)(192.0, 1.0, 102.0)] [1, 1, 0, 1, 1, 1; 1, 0, 1, 0, 1, 0; 1, 1, 0, 1, 1, 1; 1, 1, 1, 1, 0, 0; 1, 1, 0, 1, 0, 0; 1, 0, 1, 0, 1, 0; 1, 0, 0, 0, 0, 1; 1, 1, 0, 1, 1, 1; 1, 1, 0, 1, 0, 1; 1, 0, 0, 0, 1, 0; 1, 1, 0, 1, 1, 0; 1, 1, 1, 0, 1, 1; 1, 0, 0, 0, 1, 1; 1, 0, 0, 1, 0, 0; 1, 1, 0, 1, 1, 0]"	0.0077094714367302	0.3123	0.17530891615802277	0.477584675016718	0.015297609516848599
15	"[[4][1][5][2][6][3]] [6|(50000.0, 630.0)(50000.0, 630.0)(50000.0, 630.0)(50000.0, 450.0)(50000.0, 630.0)(50000.0, 630.0)] [15|(160.0, 1.0, 81.0)(224.0, 5.0, 93.0)(160.0, 1.0, 81.0)(224.0, 1.0, 123.0)(224.0, 1.0, 123.0)(256.0, 3.0, 129.0)(192.0, 3.0, 87.0)(256.0, 5.0, 114.0)(224.0, 3.0, 108.0)(192.0, 1.0, 102.0)(256.0, 1.0, 144.0)(256.0, 1.0, 144.0)(256.0, 5.0, 114.0)(256.0, 1.0, 144.0)(192.0, 1.0, 102.0)] [1, 0, 1, 1, 1, 0; 1, 1, 1, 1, 0, 1; 1, 1, 1, 1, 0, 1; 1, 1, 0, 0, 0, 1; 1, 0, 1, 1, 1, 0; 1, 1, 0, 1, 0, 1; 1, 1, 0, 0, 1, 1; 1, 0, 0, 0, 1, 1; 1, 1, 1, 1, 0, 0; 1, 1, 1, 1, 1, 0; 1, 1, 0, 1, 1, 1; 1, 0, 0, 0, 1, 1; 1, 0, 0, 1, 1, 1; 1, 0, 1, 1, 0, 1; 1, 1, 1, 0, 1, 1]"	0.013002508434483744	0.5289	0.06404570339022148	0.28313521563931143	0.015268706099328237
16	"[[2][1][2][1][3][1]] [3|(50000.0, 450.0)(33300.0, 300.0)(13300.0, 150.0)] [1|(128.0, 3.0, 45.0)] [1, 1, 1]"	0.18193440351466472	0.0945	0.17021241850948346	0.3633752804763285	0.015656360310557206
17	"[[1][1][2][3][1][1]] [3|(46600.0, 400.0)(10000.0, 125.0)(13300.0, 150.0)] [1|(128.0, 5.0, 30.0)] [1, 1, 1]"	0.14898709453299333	0.0705	0.2611053556114036	0.5437702140629582	0.01610779071224617
18	"[[1][1][2][3][2][1]] [3|(40000.0, 350.0)(13300.0, 210.0)(10000.0, 125.0)] [1|(160.0, 1.0, 81.0)] [1, 1, 1]"	0.03702545548551832	0.0766	0.31180915564406164	0.5488835951378728	0.015417248875211368
19	"[[1][1][2][3][2][1]] [3|(40000.0, 350.0)(6600.0, 100.0)(13300.0, 150.0)] [1|(128.0, 1.0, 60.0)] [1, 1, 1]"	0.03685816545836869	0.066	0.35899062066601245	0.6180253066397335	0.015761939663844645
20	"[[1][1][2][3][1][1]] [3|(50000.0, 630.0)(13300.0, 210.0)(10000.0, 125.0)] [1|(160.0, 1.0, 81.0)] [1, 1, 1]"	0.029879934915731654	0.1046	0.2717286127417899	0.49180125950532083	0.015173562679154599
21	"[[2][1][2][1][3][1]] [3|(50000.0, 450.0)(40000.0, 350.0)(13300.0, 150.0)] [1|(128.0, 5.0, 30.0)] [1, 1, 1]"	0.3060982023499233	0.098	0.15927408412771718	0.44596892252805403	0.01570169884802542
22	"[[4][1][5][2][6][3]] [6|(50000.0, 630.0)(50000.0, 450.0)(13300.0, 150.0)(50000.0, 450.0)(16600.0, 175.0)(36600.0, 325.0)] [3|(160.0, 1.0, 81.0)(224.0, 5.0, 93.0)(128.0, 5.0, 30.0)] [1, 1, 1, 1, 1, 1; 1, 1, 1, 1, 0, 1; 1, 1, 1, 1, 1, 1]"	0.029213544582188413	0.2384	0.08907451569947256	0.35428828620285874	0.016249708889989833
23	"[[1][1][2][3][2][1]] [3|(46600.0, 400.0)(6600.0, 100.0)(10000.0, 125.0)] [1|(128.0, 5.0, 30.0)] [1, 1, 1]"	0.18482267724116203	0.0655	0.37601726979510325	0.6381667057847135	0.015476590174526858
24	"[[4][1][5][2][6][3]] [6|(50000.0, 630.0)(6600.0, 100.0)(50000.0, 630.0)(33300.0, 300.0)(46600.0, 400.0)(36600.0, 325.0)] [15|(128.0, 1.0, 60.0)(224.0, 5.0, 93.0)(128.0, 5.0, 30.0)(224.0, 1.0, 123.0)(224.0, 1.0, 123.0)(128.0, 3.0, 45.0)(192.0, 3.0, 87.0)(128.0, 3.0, 45.0)(224.0, 3.0, 108.0)(256.0, 1.0, 144.0)(256.0, 1.0, 144.0)(256.0, 1.0, 144.0)(256.0, 5.0, 114.0)(192.0, 3.0, 87.0)(192.0, 1.0, 102.0)] [1, 1, 0, 1, 1, 1; 1, 0, 1, 1, 0, 0; 1, 1, 1, 1, 1, 1; 1, 1, 0, 1, 1, 0; 1, 1, 0, 1, 0, 0; 1, 1, 1, 0, 0, 1; 1, 1, 0, 0, 0, 1; 1, 0, 1, 0, 1, 1; 1, 1, 0, 1, 0, 0; 1, 0, 0, 1, 1, 0; 1, 1, 0, 1, 1, 0; 1, 1, 0, 0, 1, 1; 1, 0, 1, 0, 1, 1; 1, 0, 0, 1, 0, 0; 1, 1, 1, 0, 1, 1]"	0.007708785781162704	0.3834	0.1603992055634418	0.43989967666301844	0.01536602237712031
25	"[[1][1][2][3][2][1]] [3|(50000.0, 450.0)(13300.0, 210.0)(43300.0, 375.0)] [1|(160.0, 1.0, 81.0)] [1, 1, 1]"	0.03675512382643802	0.1116	0.1899030989323628	0.4031792653281165	0.01618042563147171
26	"[[1][1][2][3][2][1]] [3|(40000.0, 350.0)(6600.0, 100.0)(43300.0, 375.0)] [1|(128.0, 3.0, 45.0)] [1, 1, 1]"	0.11114973641637979	0.087	0.2887742493451004	0.5855559100131773	0.015555388677720803
27	"[[3][1][4][2][4][1]] [4|(50000.0, 450.0)(50000.0, 630.0)(50000.0, 450.0)(50000.0, 450.0)] [1|(128.0, 3.0, 45.0)] [1, 1, 1, 1]"	0.24206930556356449	0.2025	0.09608699238131585	0.3412975257608505	0.01585983311228344
28	"[[4][1][5][2][6][3]] [6|(50000.0, 630.0)(10000.0, 125.0)(13300.0, 150.0)(50000.0, 450.0)(50000.0, 630.0)(13300.0, 210.0)] [15|(128.0, 1.0, 60.0)(224.0, 5.0, 93.0)(128.0, 5.0, 30.0)(224.0, 1.0, 123.0)(160.0, 5.0, 51.0)(128.0, 3.0, 45.0)(192.0, 3.0, 87.0)(256.0, 5.0, 114.0)(224.0, 3.0, 108.0)(192.0, 1.0, 102.0)(256.0, 1.0, 144.0)(160.0, 1.0, 81.0)(256.0, 5.0, 114.0)(192.0, 3.0, 87.0)(192.0, 1.0, 102.0)] [1, 1, 1, 1, 1, 1; 1, 1, 1, 0, 0, 1; 1, 1, 0, 1, 1, 1; 1, 1, 0, 1, 0, 1; 1, 1, 1, 1, 1, 0; 1, 0, 1, 1, 0, 1; 1, 0, 0, 0, 0, 1; 1, 0, 0, 0, 1, 1; 1, 1, 1, 1, 0, 0; 1, 1, 1, 1, 1, 0; 1, 1, 0, 1, 0, 0; 1, 1, 0, 0, 1, 1; 1, 1, 0, 1, 1, 1; 1, 0, 0, 1, 0, 1; 1, 1, 1, 0, 1, 1]"	0.005853473431960497	0.3536	0.1376181970194724	0.4286737033059805	0.015411857642564907
29	"[[1][1][2][3][1][1]] [3|(50000.0, 630.0)(50000.0, 450.0)(10000.0, 125.0)] [3|(160.0, 1.0, 81.0)(224.0, 5.0, 93.0)(128.0, 5.0, 30.0)] [1, 1, 1; 1, 1, 0; 1, 1, 1]"	0.009973861772576753	0.1409	0.23525912819176695	0.45860005957621575	0.015242677283244497
30	"[[1][1][2][1][2][1]] [2|(46600.0, 400.0)(6600.0, 100.0)] [1|(128.0, 5.0, 30.0)] [1, 1]"	0.08468435672788381	0.053	0.4112219881842837	0.5421275366878544	0.015734680277988765
31	"[[3][1][1][2][1][1]] [3|(50000.0, 630.0)(13300.0, 210.0)(33300.0, 300.0)] [1|(160.0, 1.0, 81.0)] [1, 1, 1]"	0.06395760743571309	0.1221	0.21669961916658467	0.3961722129123903	0.015333758747411545
32	"[[1][1][2][3][2][1]] [3|(40000.0, 350.0)(40000.0, 350.0)(13300.0, 150.0)] [3|(128.0, 1.0, 60.0)(224.0, 3.0, 108.0)(256.0, 3.0, 129.0)] [1, 1, 1; 1, 1, 1; 1, 1, 1]"	0.01233058427361814	0.1147	0.2273808531963558	0.46757281067289175	0.016087834490173057
33	"[[1][1][2][3][1][1]] [3|(46600.0, 400.0)(6600.0, 100.0)(10000.0, 125.0)] [1|(160.0, 1.0, 81.0)] [1, 1, 1]"	0.03005487497914224	0.0706	0.3275722497344266	0.5631284408516556	0.015530161163898918
34	"[[1][1][2][3][2][1]] [3|(46600.0, 400.0)(10000.0, 125.0)(10000.0, 125.0)] [1|(160.0, 1.0, 81.0)] [1, 1, 1]"	0.037012253103356395	0.0731	0.32404603719709707	0.5307803213102696	0.016061825612308
35	"[[4][1][5][2][6][3]] [6|(46600.0, 400.0)(33300.0, 300.0)(33300.0, 300.0)(33300.0, 300.0)(50000.0, 630.0)(13300.0, 210.0)] [15|(128.0, 1.0, 60.0)(224.0, 5.0, 93.0)(128.0, 3.0, 45.0)(224.0, 1.0, 123.0)(160.0, 5.0, 51.0)(128.0, 3.0, 45.0)(256.0, 1.0, 144.0)(128.0, 3.0, 45.0)(256.0, 3.0, 129.0)(160.0, 5.0, 51.0)(128.0, 1.0, 60.0)(160.0, 3.0, 66.0)(256.0, 5.0, 114.0)(256.0, 3.0, 129.0)(192.0, 3.0, 87.0)] [1, 1, 1, 1, 1, 1; 1, 1, 1, 1, 1, 0; 1, 1, 1, 1, 1, 1; 1, 1, 1, 1, 0, 1; 1, 1, 0, 1, 1, 0; 1, 1, 1, 0, 0, 1; 1, 0, 1, 0, 0, 1; 1, 1, 0, 0, 0, 1; 1, 1, 0, 1, 0, 1; 1, 0, 1, 1, 1, 0; 1, 1, 0, 1, 0, 1; 1, 1, 0, 0, 0, 1; 1, 0, 0, 1, 1, 1; 1, 1, 0, 1, 0, 1; 1, 1, 1, 1, 1, 0]"	0.0058467102848122855	0.3382	0.09195975007389195	0.32500447733110926	0.01592504474852896
36	"[[4][1][5][2][6][3]] [6|(46600.0, 400.0)(40000.0, 350.0)(43300.0, 375.0)(50000.0, 450.0)(46600.0, 400.0)(36600.0, 325.0)] [1|(128.0, 3.0, 45.0)] [1, 1, 1, 1, 1, 1]"	0.2633957997482121	0.2345	0.07152803470236195	0.4055862138278547	0.01587181403063196
37	"[[1][1][2][3][2][1]] [3|(40000.0, 350.0)(10000.0, 125.0)(10000.0, 125.0)] [3|(128.0, 1.0, 60.0)(224.0, 5.0, 93.0)(128.0, 5.0, 30.0)] [1, 0, 1; 1, 1, 1; 1, 1, 1]"	0.03493987395345879	0.0783	0.33786533430154986	0.6024614189197087	0.015479944909488199
38	"[[1][1][2][3][2][1]] [3|(40000.0, 350.0)(6600.0, 100.0)(10000.0, 125.0)] [1|(128.0, 3.0, 45.0)] [1, 1, 1]"	0.11097381020342542	0.062	0.3915602412288111	0.6640893901773731	0.01572536067248879
39	"[[2][1][1][1][3][1]] [3|(50000.0, 450.0)(33300.0, 300.0)(43300.0, 375.0)] [1|(128.0, 3.0, 45.0)] [1, 1, 1]"	0.15340875080114658	0.117	0.14354861212788325	0.3482752062288991	0.01575889884959219
40	"[[2][1][2][1][3][1]] [3|(46600.0, 400.0)(50000.0, 450.0)(10000.0, 125.0)] [3|(128.0, 5.0, 30.0)(128.0, 3.0, 45.0)(128.0, 5.0, 30.0)] [1, 1, 1; 1, 1, 1; 1, 1, 1]"	0.10097059930099388	0.108	0.1637991288726465	0.448787694629617	0.01572772428156933
41	"[[3][1][4][2][1][1]] [4|(50000.0, 450.0)(40000.0, 350.0)(43300.0, 375.0)(16600.0, 245.0)] [3|(128.0, 5.0, 30.0)(128.0, 3.0, 45.0)(160.0, 1.0, 81.0)] [1, 1, 1, 1; 1, 1, 1, 0; 1, 1, 0, 1]"	0.12306002007111949	0.1576	0.12445231585177954	0.4492893768176215	0.015505658861582894
42	"[[3][1][1][2][4][1]] [4|(50000.0, 450.0)(33300.0, 300.0)(43300.0, 375.0)(16600.0, 245.0)] [1|(128.0, 3.0, 45.0)] [1, 1, 1, 1]"	0.21190421503094897	0.1415	0.12089338656379409	0.37484455103687014	0.015790425528741787
43	"[[3][1][1][2][4][1]] [4|(50000.0, 450.0)(50000.0, 450.0)(50000.0, 450.0)(50000.0, 450.0)] [3|(160.0, 1.0, 81.0)(224.0, 3.0, 108.0)(160.0, 1.0, 81.0)] [1, 1, 1, 0; 1, 1, 0, 1; 1, 0, 1, 1]"	0.028230448137853914	0.207	0.0963203613792387	0.294466891486992	0.016005174279248826
44	"[[3][1][1][2][4][1]] [4|(50000.0, 450.0)(40000.0, 350.0)(50000.0, 450.0)(16600.0, 245.0)] [1|(128.0, 5.0, 30.0)] [1, 1, 1, 1]"	0.35540892203033475	0.1525	0.11225365015608667	0.4372284163916295	0.015666162093445617
45	"[[4][1][5][2][6][3]] [6|(50000.0, 630.0)(50000.0, 630.0)(50000.0, 630.0)(50000.0, 450.0)(43300.0, 375.0)(36600.0, 325.0)] [15|(128.0, 1.0, 60.0)(128.0, 3.0, 45.0)(160.0, 1.0, 81.0)(224.0, 1.0, 123.0)(160.0, 5.0, 51.0)(256.0, 3.0, 129.0)(256.0, 3.0, 129.0)(128.0, 3.0, 45.0)(224.0, 3.0, 108.0)(160.0, 5.0, 51.0)(256.0, 1.0, 144.0)(160.0, 1.0, 81.0)(256.0, 5.0, 114.0)(256.0, 1.0, 144.0)(256.0, 3.0, 129.0)] [1, 1, 1, 1, 1, 1; 1, 1, 1, 1, 1, 1; 1, 1, 1, 1, 1, 1; 1, 1, 1, 1, 1, 1; 1, 1, 1, 1, 1, 0; 1, 1, 1, 0, 0, 1; 1, 1, 0, 0, 0, 1; 1, 1, 1, 0, 1, 1; 1, 1, 0, 0, 0, 0; 1, 1, 1, 1, 1, 0; 1, 1, 1, 0, 1, 0; 1, 1, 0, 0, 0, 1; 1, 0, 0, 0, 1, 1; 1, 0, 0, 1, 1, 1; 1, 1, 1, 0, 1, 0]"	0.0058694885499690356	0.4474	0.06650435386625049	0.25939253027970594	0.015720461513522195
46	"[[1][1][2][3][1][1]] [3|(46600.0, 400.0)(13300.0, 210.0)(13300.0, 150.0)] [3|(128.0, 1.0, 60.0)(224.0, 5.0, 93.0)(128.0, 5.0, 30.0)] [1, 1, 1; 1, 1, 1; 1, 1, 1]"	0.010018481734272413	0.0943	0.24518658882357527	0.4915252361507275	0.015842031795597077
47	"[[4][1][5][2][6][3]] [6|(46600.0, 400.0)(40000.0, 350.0)(50000.0, 630.0)(33300.0, 300.0)(46600.0, 400.0)(36600.0, 325.0)] [15|(160.0, 1.0, 81.0)(224.0, 5.0, 93.0)(160.0, 1.0, 81.0)(224.0, 1.0, 123.0)(224.0, 1.0, 123.0)(256.0, 3.0, 129.0)(256.0, 1.0, 144.0)(256.0, 5.0, 114.0)(224.0, 3.0, 108.0)(256.0, 1.0, 144.0)(256.0, 1.0, 144.0)(256.0, 1.0, 144.0)(256.0, 5.0, 114.0)(224.0, 1.0, 123.0)(192.0, 1.0, 102.0)] [1, 1, 1, 1, 1, 0; 1, 1, 1, 1, 1, 0; 1, 1, 1, 1, 0, 1; 1, 1, 1, 0, 0, 0; 1, 0, 0, 1, 0, 0; 1, 1, 0, 1, 0, 1; 1, 1, 0, 0, 1, 1; 1, 1, 0, 0, 1, 1; 1, 1, 1, 1, 1, 0; 1, 0, 0, 1, 1, 0; 1, 1, 0, 1, 0, 1; 1, 0, 0, 1, 1, 1; 1, 0, 0, 1, 1, 1; 1, 0, 1, 1, 0, 1; 1, 1, 1, 0, 1, 0]"	0.005840474805623562	0.4172	0.07807782338782841	0.2873056288528094	0.01588901862420925
48	"[[4][1][5][2][6][3]] [6|(50000.0, 630.0)(13300.0, 210.0)(13300.0, 150.0)(50000.0, 450.0)(46600.0, 400.0)(36600.0, 325.0)] [3|(160.0, 1.0, 81.0)(128.0, 3.0, 45.0)(128.0, 5.0, 30.0)] [1, 1, 1, 1, 1, 1; 1, 1, 1, 1, 0, 0; 1, 1, 1, 1, 1, 1]"	0.029305659504605498	0.2321	0.11277239022176173	0.3858066454619281	0.0156293585460498
49	"[[4][1][5][2][6][3]] [6|(50000.0, 630.0)(50000.0, 630.0)(43300.0, 375.0)(50000.0, 450.0)(46600.0, 400.0)(13300.0, 210.0)] [15|(128.0, 3.0, 45.0)(224.0, 5.0, 93.0)(160.0, 3.0, 66.0)(224.0, 1.0, 123.0)(160.0, 5.0, 51.0)(128.0, 3.0, 45.0)(128.0, 5.0, 30.0)(128.0, 3.0, 45.0)(192.0, 3.0, 87.0)(160.0, 5.0, 51.0)(256.0, 1.0, 144.0)(256.0, 1.0, 144.0)(256.0, 5.0, 114.0)(256.0, 1.0, 144.0)(256.0, 3.0, 129.0)] [1, 1, 1, 1, 1, 1; 1, 1, 1, 1, 0, 1; 1, 1, 1, 1, 0, 1; 1, 1, 0, 0, 1, 1; 1, 1, 1, 1, 1, 0; 1, 1, 0, 0, 0, 1; 1, 1, 0, 0, 0, 1; 1, 0, 1, 0, 1, 1; 1, 1, 0, 0, 0, 0; 1, 1, 1, 1, 1, 0; 1, 1, 0, 1, 1, 0; 1, 0, 0, 0, 1, 1; 1, 1, 0, 0, 1, 1; 1, 0, 0, 1, 0, 0; 1, 1, 1, 0, 1, 1]"	0.017626582884979144	0.4006	0.07552782163551361	0.418411118430067	0.01523948625746835
50	"[[3][1][1][2][4][1]] [4|(50000.0, 450.0)(40000.0, 350.0)(43300.0, 375.0)(50000.0, 450.0)] [1|(128.0, 3.0, 45.0)] [1, 1, 1, 1]"	0.21335824574122575	0.167	0.10432869808784319	0.35471173522080635	0.01583659602210392
